3Bimestre/atividade2 vhdl/simulation/qsim/Vhdl1.msim.vcd
$comment
	File created using the following command:
		vcd file Vhdl1.msim.vcd -direction
$end
$date
	Wed Sep 20 16:04:23 2023
$end
$version
	ModelSim Version 10.5b
$end
$timescale
	1ps
$end

$scope module vhdl1_vhd_vec_tst $end
$var wire 1 ! A $end
$var wire 1 " aEqualsB $end
$var wire 1 # aMaiorB $end
$var wire 1 $ aMenorB $end
$var wire 1 % B $end
$var wire 1 & C $end
$var wire 1 ' D $end

$scope module i1 $end
$var wire 1 ( gnd $end
$var wire 1 ) vcc $end
$var wire 1 * unknown $end
$var wire 1 + devoe $end
$var wire 1 , devclrn $end
$var wire 1 - devpor $end
$var wire 1 . ww_devoe $end
$var wire 1 / ww_devclrn $end
$var wire 1 0 ww_devpor $end
$var wire 1 1 ww_A $end
$var wire 1 2 ww_B $end
$var wire 1 3 ww_C $end
$var wire 1 4 ww_D $end
$var wire 1 5 ww_aMaiorB $end
$var wire 1 6 ww_aEqualsB $end
$var wire 1 7 ww_aMenorB $end
$var wire 1 8 \aMaiorB~output_o\ $end
$var wire 1 9 \aEqualsB~output_o\ $end
$var wire 1 : \aMenorB~output_o\ $end
$var wire 1 ; \A~input_o\ $end
$var wire 1 < \B~input_o\ $end
$var wire 1 = \D~input_o\ $end
$var wire 1 > \C~input_o\ $end
$var wire 1 ? \aMaiorB~0_combout\ $end
$var wire 1 @ \aEqualsB~0_combout\ $end
$var wire 1 A \aMenorB~0_combout\ $end
$var wire 1 B \ALT_INV_aEqualsB~0_combout\ $end
$upscope $end
$upscope $end
$enddefinitions $end
#0
$dumpvars
0!
1"
0#
0$
0%
0&
0'
0(
1)
x*
1+
1,
1-
1.
1/
10
01
02
03
04
05
16
07
08
19
0:
0;
0<
0=
0>
0?
0@
0A
1B
$end
#10000
1'
14
1=
1@
1A
0B
1:
09
17
06
1$
0"
#20000
0'
1&
04
13
1>
0=
#30000
1'
14
1=
#40000
0'
0&
1%
04
03
12
1<
0>
0=
1?
0A
0:
18
07
15
0$
1#
#50000
1'
14
1=
0?
0@
1B
08
19
05
16
0#
1"
#60000
0'
1&
04
13
1>
0=
1@
1A
0B
1:
09
17
06
1$
0"
#70000
1'
14
1=
#80000
0'
0&
0%
1!
04
03
02
11
1;
0<
0>
0=
1?
0A
0:
18
07
15
0$
1#
#90000
1'
14
1=
#100000
0'
1&
04
13
1>
0=
0?
0@
1B
08
19
05
16
0#
1"
#110000
1'
14
1=
1@
1A
0B
1:
09
17
06
1$
0"
#120000
0'
0&
1%
04
03
12
1<
0>
0=
1?
0A
0:
18
07
15
0$
1#
#130000
1'
14
1=
#140000
0'
1&
04
13
1>
0=
#150000
1'
14
1=
0?
0@
1B
08
19
05
16
0#
1"
#160000
0'
0&
0%
0!
04
03
02
01
0;
0<
0>
0=
#170000
1'
14
1=
1@
1A
0B
1:
09
17
06
1$
0"
#180000
0'
1&
04
13
1>
0=
#190000
1'
14
1=
#200000
0'
0&
1%
04
03
12
1<
0>
0=
1?
0A
0:
18
07
15
0$
1#
#210000
1'
14
1=
0?
0@
1B
08
19
05
16
0#
1"
#220000
0'
1&
04
13
1>
0=
1@
1A
0B
1:
09
17
06
1$
0"
#230000
1'
14
1=
#240000
0'
0&
0%
1!
04
03
02
11
1;
0<
0>
0=
1?
0A
0:
18
07
15
0$
1#
#250000
1'
14
1=
#260000
0'
1&
04
13
1>
0=
0?
0@
1B
08
19
05
16
0#
1"
#270000
1'
14
1=
1@
1A
0B
1:
09
17
06
1$
0"
#280000
0'
0&
1%
04
03
12
1<
0>
0=
1?
0A
0:
18
07
15
0$
1#
#290000
1'
14
1=
#300000
0'
1&
04
13
1>
0=
#310000
1'
14
1=
0?
0@
1B
08
19
05
16
0#
1"
#320000
0'
0&
0%
0!
04
03
02
01
0;
0<
0>
0=
#330000
1'
14
1=
1@
1A
0B
1:
09
17
06
1$
0"
#340000
0'
1&
04
13
1>
0=
#350000
1'
14
1=
#360000
0'
0&
1%
04
03
12
1<
0>
0=
1?
0A
0:
18
07
15
0$
1#
#370000
1'
14
1=
0?
0@
1B
08
19
05
16
0#
1"
#380000
0'
1&
04
13
1>
0=
1@
1A
0B
1:
09
17
06
1$
0"
#390000
1'
14
1=
#400000
0'
0&
0%
1!
04
03
02
11
1;
0<
0>
0=
1?
0A
0:
18
07
15
0$
1#
#410000
1'
14
1=
#420000
0'
1&
04
13
1>
0=
0?
0@
1B
08
19
05
16
0#
1"
#430000
1'
14
1=
1@
1A
0B
1:
09
17
06
1$
0"
#440000
0'
0&
1%
04
03
12
1<
0>
0=
1?
0A
0:
18
07
15
0$
1#
#450000
1'
14
1=
#460000
0'
1&
04
13
1>
0=
#470000
1'
14
1=
0?
0@
1B
08
19
05
16
0#
1"
#480000
0'
0&
0%
0!
04
03
02
01
0;
0<
0>
0=
#490000
1'
14
1=
1@
1A
0B
1:
09
17
06
1$
0"
#500000
0'
1&
04
13
1>
0=
#510000
1'
14
1=
#520000
0'
0&
1%
04
03
12
1<
0>
0=
1?
0A
0:
18
07
15
0$
1#
#530000
1'
14
1=
0?
0@
1B
08
19
05
16
0#
1"
#540000
0'
1&
04
13
1>
0=
1@
1A
0B
1:
09
17
06
1$
0"
#550000
1'
14
1=
#560000
0'
0&
0%
1!
04
03
02
11
1;
0<
0>
0=
1?
0A
0:
18
07
15
0$
1#
#570000
1'
14
1=
#580000
0'
1&
04
13
1>
0=
0?
0@
1B
08
19
05
16
0#
1"
#590000
1'
14
1=
1@
1A
0B
1:
09
17
06
1$
0"
#600000
0'
0&
1%
04
03
12
1<
0>
0=
1?
0A
0:
18
07
15
0$
1#
#610000
1'
14
1=
#620000
0'
1&
04
13
1>
0=
#630000
1'
14
1=
0?
0@
1B
08
19
05
16
0#
1"
#640000
0'
0&
0%
0!
04
03
02
01
0;
0<
0>
0=
#650000
1'
14
1=
1@
1A
0B
1:
09
17
06
1$
0"
#660000
0'
1&
04
13
1>
0=
#670000
1'
14
1=
#680000
0'
0&
1%
04
03
12
1<
0>
0=
1?
0A
0:
18
07
15
0$
1#
#690000
1'
14
1=
0?
0@
1B
08
19
05
16
0#
1"
#700000
0'
1&
04
13
1>
0=
1@
1A
0B
1:
09
17
06
1$
0"
#710000
1'
14
1=
#720000
0'
0&
0%
1!
04
03
02
11
1;
0<
0>
0=
1?
0A
0:
18
07
15
0$
1#
#730000
1'
14
1=
#740000
0'
1&
04
13
1>
0=
0?
0@
1B
08
19
05
16
0#
1"
#750000
1'
14
1=
1@
1A
0B
1:
09
17
06
1$
0"
#760000
0'
0&
1%
04
03
12
1<
0>
0=
1?
0A
0:
18
07
15
0$
1#
#770000
1'
14
1=
#780000
0'
1&
04
13
1>
0=
#790000
1'
14
1=
0?
0@
1B
08
19
05
16
0#
1"
#800000
0'
0&
0%
0!
04
03
02
01
0;
0<
0>
0=
#810000
1'
14
1=
1@
1A
0B
1:
09
17
06
1$
0"
#820000
0'
1&
04
13
1>
0=
#830000
1'
14
1=
#840000
0'
0&
1%
04
03
12
1<
0>
0=
1?
0A
0:
18
07
15
0$
1#
#850000
1'
14
1=
0?
0@
1B
08
19
05
16
0#
1"
#860000
0'
1&
04
13
1>
0=
1@
1A
0B
1:
09
17
06
1$
0"
#870000
1'
14
1=
#880000
0'
0&
0%
1!
04
03
02
11
1;
0<
0>
0=
1?
0A
0:
18
07
15
0$
1#
#890000
1'
14
1=
#900000
0'
1&
04
13
1>
0=
0?
0@
1B
08
19
05
16
0#
1"
#910000
1'
14
1=
1@
1A
0B
1:
09
17
06
1$
0"
#920000
0'
0&
1%
04
03
12
1<
0>
0=
1?
0A
0:
18
07
15
0$
1#
#930000
1'
14
1=
#940000
0'
1&
04
13
1>
0=
#950000
1'
14
1=
0?
0@
1B
08
19
05
16
0#
1"
#960000
0'
0&
0%
0!
04
03
02
01
0;
0<
0>
0=
#970000
1'
14
1=
1@
1A
0B
1:
09
17
06
1$
0"
#980000
0'
1&
04
13
1>
0=
#990000
1'
14
1=
