3Bimestre/Quartus 2/simulation/qsim/teste.msim.vcd
$comment
	File created using the following command:
		vcd file teste.msim.vcd -direction
$end
$date
	Thu Sep 07 19:44:28 2023
$end
$version
	ModelSim Version 10.5b
$end
$timescale
	1ps
$end

$scope module teste_vlg_vec_tst $end
$var reg 1 ! a $end
$var reg 1 " b $end
$var reg 1 # c $end
$var wire 1 $ saida $end

$scope module i1 $end
$var wire 1 % gnd $end
$var wire 1 & vcc $end
$var wire 1 ' unknown $end
$var tri1 1 ( devclrn $end
$var tri1 1 ) devpor $end
$var tri1 1 * devoe $end
$var wire 1 + saida~output_o $end
$var wire 1 , a~input_o $end
$var wire 1 - c~input_o $end
$var wire 1 . b~input_o $end
$var wire 1 / inst~0_combout $end
$upscope $end
$upscope $end
$enddefinitions $end
#0
$dumpvars
1!
0"
0#
0$
0%
1&
x'
1(
1)
1*
0+
1,
0-
0.
0/
$end
#20000
0!
1"
1#
0,
1.
1-
#30000
0"
0.
#40000
0#
1"
0-
1.
#50000
1!
1#
0"
1,
1-
0.
#60000
0#
1"
0-
1.
#80000
0!
1#
0"
0,
1-
0.
#90000
0#
1"
0-
1.
#100000
1!
0"
1,
0.
#110000
1"
1.
#120000
0"
0.
#130000
1#
0!
1"
1-
0,
1.
#140000
0#
1!
0-
1,
#160000
0"
0.
#170000
0!
0,
#190000
1#
1-
#200000
1"
1!
0#
1.
1,
0-
#210000
0!
1#
0,
1-
#220000
0#
0-
#230000
1#
1-
#240000
0#
0-
#260000
1!
1#
1,
1-
1/
1+
1$
#270000
0!
0#
0,
0-
0/
0+
0$
#280000
0"
1#
0.
1-
#290000
1!
1,
#300000
0!
0,
#310000
1"
0#
1.
0-
#320000
0"
1#
0.
1-
#330000
1!
1,
#340000
1"
0!
1.
0,
#350000
1!
1,
1/
1+
1$
#360000
0#
0"
0-
0.
0/
0+
0$
#370000
1#
1"
1-
1.
1/
1+
1$
#380000
0!
0#
0,
0-
0/
0+
0$
#390000
1#
1-
#400000
0"
0#
0.
0-
#410000
1"
1#
1.
1-
#420000
1!
1,
1/
1+
1$
#440000
0"
0!
0.
0,
0/
0+
0$
#460000
0#
0-
#470000
1#
1-
#480000
1!
0#
1,
0-
#490000
1"
1.
#500000
1#
0"
1-
0.
#510000
0!
0,
#520000
1!
1,
#530000
0#
1"
0!
0-
1.
0,
#540000
0"
1!
0.
1,
#550000
1"
0!
1.
0,
#570000
0"
0.
#580000
1#
1!
1"
1-
1,
1.
1/
1+
1$
#590000
0!
0"
0,
0.
0/
0+
0$
#600000
0#
1!
1"
0-
1,
1.
#610000
1#
1-
1/
1+
1$
#620000
0!
0#
0,
0-
0/
0+
0$
#630000
0"
1#
0.
1-
#640000
1!
1"
1,
1.
1/
1+
1$
#650000
0#
0!
0"
0-
0,
0.
0/
0+
0$
#670000
1#
1"
1-
1.
#690000
1!
0#
0"
1,
0-
0.
#700000
0!
1"
0,
1.
#710000
1#
1-
#720000
0#
0-
#730000
1!
1#
1,
1-
1/
1+
1$
#740000
0!
0,
0/
0+
0$
#750000
0"
0#
1!
0.
0-
1,
#760000
1"
1#
1.
1-
1/
1+
1$
#780000
0!
0#
0,
0-
0/
0+
0$
#790000
0"
1!
0.
1,
#800000
1#
1"
0!
1-
1.
0,
#820000
0#
0-
#830000
0"
1!
0.
1,
#840000
1"
1.
#860000
1#
1-
1/
1+
1$
#870000
0"
0.
0/
0+
0$
#890000
0!
0#
1"
0,
0-
1.
#900000
1!
0"
1,
0.
#910000
0!
1"
0,
1.
#920000
1#
0"
1-
0.
#930000
1!
0#
1,
0-
#940000
0!
1#
0,
1-
#950000
0#
0-
#960000
1!
1#
1,
1-
#970000
0!
0,
#980000
1"
0#
1.
0-
#990000
0"
0.
