Spice64/examples/digital/adder_x.vcd
$date October 10, 2020 20:29:55 $end
$version ngspice 32+ $end
$timescale 1 fs $end
$var wire 1 ! 1 $end
$var wire 1 " 2 $end
$var wire 1 # 3 $end
$var wire 1 $ 4 $end
$var wire 1 % 5 $end
$var wire 1 & 6 $end
$var wire 1 ' 7 $end
$var wire 1 ( 8 $end
$var wire 1 ) s0 $end
$var wire 1 * s1 $end
$var wire 1 + s2 $end
$var wire 1 , s3 $end
$var wire 1 - c3 $end
$enddefinitions $end
#0
$dumpvars
0!
0"
0#
0$
0%
0&
0'
0(
0)
0*
0+
0,
0-
$end
#1320000
x!
x"
x#
x$
x%
x&
x'
x(
#1500000
1!
1"
1#
1$
1%
1&
1'
1(
#2720000
x-
#2900000
1-
#4120000
x)
x*
x+
x,
#4300000
1)
1*
1+
1,
#4819999
x)
x*
x+
x,
#5000000
0)
0*
0+
0,
#5519999
x*
x+
x,
#5700000
1*
1+
1,
#21779999
x!
#22000000
0!
#24579999
x*
#24800000
0*
#25279999
x)
#25500000
1)
#31780000
x"
#32000000
0"
#34580000
x)
#34800000
0)
#51279999
x!
#51500000
1!
#51723999
x#
#51979999
0#
#54079999
x)
#54300000
1)
#54523999
x+
#54779999
0+
#55223999
x*
#55479999
1*
#71850000
0!
#74650000
0)
#91850000
0$
#94650000
0*
#101350000
1!
1"
#104150000
1)
1*
#104850000
0)
#121850000
0!
#124650000
0*
#125350000
1)
#131850000
0"
#134650000
0)
#151350000
1!
#154150000
1)
#171850000
0!
0%
#174650000
0)
0,
#175350000
1+
#201350000
1!
1"
1#
#204150000
1)
1*
#204850000
0)
0*
#206250000
0+
#206950000
1,
#221850000
0!
#225350000
1)
1*
#226750000
1+
#227450000
0,
#231850000
0"
#234650000
0)
#251350000
1!
#251780000
x#
#252000000
0#
#254150000
1)
#254580000
x*
#254800000
0*
#271780000
x!
#272000000
0!
#274580000
x)
#274800000
0)
#301279999
x!
x"
#301500000
1!
1"
#304079999
x)
x*
#304300000
1)
1*
#304779999
x)
#305000000
0)
#321780000
x!
#322000000
0!
#324580000
x*
#324800000
0*
#325280000
x)
#325500000
1)
#331779999
x"
x&
#332000000
0"
0&
#334579999
x)
x+
#334800000
0)
0+
#351280002
x!
#351500000
1!
#354080002
x)
#354300000
1)
#371779930
x!
#372000000
0!
#374579930
x)
#374800000
0)
#401281664
x!
x"
x#
x$
#401500000
1!
1"
1#
1$
#404081664
x)
x*
x+
#404300000
1)
1*
1+
#404781664
x)
x*
#405000000
0)
0*
#405481664
x*
#405700000
1*
#421740051
x!
#422000000
0!
#424540051
x*
#424800000
0*
#425240051
x)
#425500000
1)
#431850000
0"
#434650000
0)
#451350000
1!
#451780000
x#
#452000000
0#
#454150000
1)
#454580000
x+
#454800000
0+
#455280000
x*
#455500000
1*
#471780000
x!
#472000000
0!
#474580000
x)
#474800000
0)
#491779999
x$
#492000000
0$
#494579999
x*
#494800000
0*
#501280000
x!
x"
#501500000
1!
1"
#504080000
x)
x*
#504300000
1)
1*
#504780000
x)
#505000000
0)
#521779999
x!
#522000000
0!
#524579999
x*
#524800000
0*
#525279999
x)
#525500000
1)
#531780003
x"
#532000000
0"
#534580003
x)
#534800000
0)
#551279922
x!
#551500000
1!
#554079922
x)
#554300000
1)
#571781859
x!
#572000000
0!
#574581859
x)
#574800000
0)
#601235363
x!
x"
x#
#601500000
1!
1"
1#
#604035363
x)
x*
#604300000
1)
1*
#604735363
x)
x*
#605000000
0)
0*
#605435363
x+
#605700000
1+
#621850000
0!
#625350000
1)
1*
#626050000
0+
#631850000
0"
#634650000
0)
#651350000
1!
#651780000
x#
x'
#652000000
0#
0'
#653180000
x-
#653400000
0-
#654150000
1)
#654580000
x*
#654800000
0*
#655280000
x,
#655500000
1,
#671779999
x!
#672000000
0!
#674579999
x)
#674800000
0)
#701280000
x!
x"
#701500000
1!
1"
#704080000
x)
x*
#704300000
1)
1*
#704780000
x)
#705000000
0)
#721779999
x!
#722000000
0!
#724579999
x*
#724800000
0*
#725279999
x)
#725500000
1)
#731780000
x"
#732000000
0"
#734580000
x)
#734800000
0)
#751279994
x!
#751500000
1!
#754079994
x)
#754300000
1)
#771780141
x!
#772000000
0!
#774580141
x)
#774800000
0)
#801276615
x!
x"
x#
x$
x%
#801500000
1!
1"
1#
1$
1%
#804076615
x)
x*
x+
#804300000
1)
1*
1+
#804776615
x)
x*
x+
#805000000
0)
0*
0+
#805476615
x*
x-
#805700000
1*
1-
#806176615
x,
#806400000
0,
#821850000
0!
#824650000
0*
#825350000
1)
#831850000
0"
#834650000
0)
#851350000
1!
#851780000
x#
#852000000
0#
#854150000
1)
#855280000
x*
x+
#855500000
1*
1+
#855980000
x-
#856200000
0-
#856680000
x,
#856900000
1,
#871779999
x!
#872000000
0!
#874579999
x)
#874800000
0)
#891780000
x$
#892000000
0$
#894580000
x*
#894800000
0*
#901279999
x!
x"
#901500000
1!
1"
#904079999
x)
x*
#904300000
1)
1*
#904779999
x)
#905000000
0)
#921780000
x!
#922000000
0!
#924580000
x*
#924800000
0*
#925280000
x)
#925500000
1)
#931779993
x"
#932000000
0"
#934579993
x)
#934800000
0)
#951280155
x!
#951500000
1!
#954080155
x)
#954300000
1)
#971776264
x!
x%
#972000000
0!
0%
#974576264
x)
x+
#974800000
0)
0+
#1001350000
1!
1"
1#
#1004150000
1)
1*
#1004850000
0)
0*
#1005550000
1+
#1021850000
0!
#1025350000
1)
1*
#1026050000
0+
#1031850000
0"
#1034650000
0)
#1051350000
1!
#1051780000
x#
#1052000000
0#
#1054150000
1)
#1054580000
x*
#1054800000
0*
#1071779999
x!
#1072000000
0!
#1074579999
x)
#1074800000
0)
#1101280000
x!
x"
#1101500000
1!
1"
#1104080000
x)
x*
#1104300000
1)
1*
#1104780000
x)
#1105000000
0)
#1121779999
x!
#1122000000
0!
#1124579999
x*
#1124800000
0*
#1125279999
x)
#1125500000
1)
#1131780000
x"
#1132000000
0"
#1134580000
x)
#1134800000
0)
#1151279993
x!
#1151500000
1!
#1154079993
x)
#1154300000
1)
#1171780164
x!
#1172000000
0!
#1174580164
x)
#1174800000
0)
#1201276060
x!
x"
x#
x$
#1201500000
1!
1"
1#
1$
#1204076060
x)
x*
x+
#1204300000
1)
1*
1+
#1204776060
x)
x*
#1205000000
0)
0*
#1205476060
x*
#1205700000
1*
#1221850000
0!
#1224650000
0*
#1225350000
1)
#1231850000
0"
#1234650000
0)
#1251350000
1!
#1251780000
x#
#1252000000
0#
#1254150000
1)
#1254580000
x+
#1254800000
0+
#1255280000
x*
#1255500000
1*
#1271779999
x!
#1272000000
0!
#1274579999
x)
#1274800000
0)
#1291780000
x$
x(
#1292000000
0$
0(
#1294580000
x*
x,
#1294800000
0*
0,
#1301279999
x!
x"
#1301500000
1!
1"
#1304079999
x)
x*
#1304300000
1)
1*
#1304779999
x)
#1305000000
0)
#1321780000
x!
#1322000000
0!
#1324580000
x*
#1324800000
0*
#1325280000
x)
#1325500000
1)
#1331779993
x"
#1332000000
0"
#1334579993
x)
#1334800000
0)
#1351280167
x!
#1351500000
1!
#1354080167
x)
#1354300000
1)
#1371775969
x!
#1372000000
0!
#1374575969
x)
#1374800000
0)
#1401350000
1!
1"
1#
#1404150000
1)
1*
#1404850000
0)
0*
#1405550000
1+
#1421850000
0!
#1425350000
1)
1*
#1426050000
0+
#1431850000
0"
#1434650000
0)
#1451350000
1!
#1451780000
x#
#1452000000
0#
#1454150000
1)
#1454580000
x*
#1454800000
0*
#1471779999
x!
#1472000000
0!
#1474579999
x)
#1474800000
0)
#1501280000
x!
x"
#1501500000
1!
1"
#1504080000
x)
x*
#1504300000
1)
1*
#1504780000
x)
#1505000000
0)
#1521779999
x!
#1522000000
0!
#1524579999
x*
#1524800000
0*
#1525279999
x)
#1525500000
1)
#1531780000
x"
#1532000000
0"
#1534580000
x)
#1534800000
0)
#1551279993
x!
#1551500000
1!
#1554079993
x)
#1554300000
1)
#1571780164
x!
#1572000000
0!
#1574580164
x)
#1574800000
0)
#1601276060
x!
x"
x#
x$
x%
x&
#1601500000
1!
1"
1#
1$
1%
1&
#1604076060
x)
x*
x+
x,
#1604300000
1)
1*
1+
1,
#1604776060
x)
x*
x+
#1605000000
0)
0*
0+
#1605476060
x*
x+
#1605700000
1*
1+
#1621850000
0!
#1624650000
0*
#1625350000
1)
#1631850000
0"
#1634650000
0)
#1651350000
1!
#1651780000
x#
#1652000000
0#
#1654150000
1)
#1654580000
x+
#1654800000
0+
#1655280000
x*
#1655500000
1*
#1671779999
x!
#1672000000
0!
#1674579999
x)
#1674800000
0)
#1691780000
x$
#1692000000
0$
#1694580000
x*
#1694800000
0*
#1701279999
x!
x"
#1701500000
1!
1"
#1704079999
x)
x*
#1704300000
1)
1*
#1704779999
x)
#1705000000
0)
#1721780000
x!
#1722000000
0!
#1724580000
x*
#1724800000
0*
#1725280000
x)
#1725500000
1)
#1731779993
x"
#1732000000
0"
#1734579993
x)
#1734800000
0)
#1751280167
x!
#1751500000
1!
#1754080167
x)
#1754300000
1)
#1771775969
x!
x%
#1772000000
0!
0%
#1774575969
x)
x,
#1774800000
0)
0,
#1775275969
x+
#1775500000
1+
#1801350000
1!
1"
1#
#1804150000
1)
1*
#1804850000
0)
0*
#1806250000
0+
#1806950000
1,
#1821850000
0!
#1825350000
1)
1*
#1826750000
1+
#1827450000
0,
#1831850000
0"
#1834650000
0)
#1851350000
1!
#1851780000
x#
#1852000000
0#
#1854150000
1)
#1854580000
x*
#1854800000
0*
#1871779999
x!
#1872000000
0!
#1874579999
x)
#1874800000
0)
#1901280000
x!
x"
#1901500000
1!
1"
#1904080000
x)
x*
#1904300000
1)
1*
#1904780000
x)
#1905000000
0)
#1921779999
x!
#1922000000
0!
#1924579999
x*
#1924799999
0*
#1925279999
x)
#1925499999
1)
#1931780000
x"
x&
#1932000000
0"
0&
#1934580000
x)
x+
#1934799999
0)
0+
#1951279993
x!
#1951499999
1!
#1954079993
x)
#1954299999
1)
#1971780163
x!
#1971999999
0!
#1974580163
x)
#1974799999
0)
#2001276085
x!
x"
x#
x$
#2001499999
1!
1"
1#
1$
#2004076085
x)
x*
x+
#2004299999
1)
1*
1+
#2004776085
x)
x*
#2004999999
0)
0*
#2005476085
x*
#2005699999
1*
#2021850000
0!
#2024649999
0*
#2025349999
1)
#2031850000
0"
#2034649999
0)
#2051350000
1!
#2051779999
x#
#2052000000
0#
#2054149999
1)
#2054579999
x+
#2054799999
0+
#2055279999
x*
#2055499999
1*
#2071780000
x!
#2071999999
0!
#2074580000
x)
#2074799999
0)
#2091779999
x$
#2092000000
0$
#2094579999
x*
#2094799999
0*
#2101280000
x!
x"
#2101500000
1!
1"
#2104080000
x)
x*
#2104299999
1)
1*
#2104780000
x)
#2104999999
0)
#2121779998
x!
#2121999999
0!
#2124579998
x*
#2124799999
0*
#2125279998
x)
#2125499999
1)
#2131780028
x"
#2132000000
0"
#2134580028
x)
#2134799999
0)
#2151279309
x!
#2151500000
1!
#2154079309
x)
#2154299999
1)
#2171796570
x!
#2171999999
0!
#2174596570
x)
#2174799999
0)
#2201350000
1!
1"
1#
#2204149999
1)
1*
#2204849999
0)
0*
#2205549999
1+
#2221849999
0!
#2225349999
1)
1*
#2226049999
0+
#2231850000
0"
#2234649999
0)
#2251350000
1!
#2251779999
x#
#2252000000
0#
#2254149999
1)
#2254579999
x*
#2254799999
0*
#2271780000
x!
#2271999999
0!
#2274580000
x)
#2274799999
0)
#2301279999
x!
x"
#2301500000
1!
1"
#2304079999
x)
x*
#2304299999
1)
1*
#2304779999
x)
#2304999999
0)
#2321780000
x!
#2321999999
0!
#2324580000
x*
#2324799999
0*
#2325280000
x)
#2325499999
1)
#2331779998
x"
#2332000000
0"
#2334579998
x)
#2334799999
0)
#2351280028
x!
#2351500000
1!
#2354080028
x)
#2354299999
1)
#2371779324
x!
#2372000000
0!
#2374579324
x)
#2374799999
0)
#2401296209
x!
x"
x#
x$
x%
#2401500000
1!
1"
1#
1$
1%
#2404096209
x)
x*
x+
#2404299999
1)
1*
1+
#2404796209
x)
x*
x+
#2404999999
0)
0*
0+
#2405496209
x*
x,
#2405699999
1*
1,
#2421850000
0!
#2424649999
0*
#2425349999
1)
#2431850000
0"
#2434649999
0)
#2451350000
1!
#2451780000
x#
#2452000000
0#
#2454149999
1)
#2455279999
x*
x+
#2455499999
1*
1+
#2455979999
x,
#2456199999
0,
#2471780000
x!
#2472000000
0!
#2474580000
x)
#2474799999
0)
#2491779999
x$
#2492000000
0$
#2494579999
x*
#2494799999
0*
#2501280000
x!
x"
#2501500000
1!
1"
#2504080000
x)
x*
#2504299999
1)
1*
#2504780000
x)
#2504999999
0)
#2521779998
x!
#2521999999
0!
#2524579998
x*
#2524799999
0*
#2525279998
x)
#2525499999
1)
#2531780028
x"
#2532000000
0"
#2534580028
x)
#2534799999
0)
#2551279309
x!
#2551500000
1!
#2554079309
x)
#2554299999
1)
#2571796570
x!
x%
#2571999999
0!
0%
#2574596570
x)
x+
#2574799999
0)
0+
#2601350000
1!
1"
1#
#2604149999
1)
1*
#2604849999
0)
0*
#2605549999
1+
#2621849999
0!
#2625349999
1)
1*
#2626049999
0+
#2631850000
0"
#2634649999
0)
#2651350000
1!
#2651779999
x#
#2652000000
0#
#2654149999
1)
#2654579999
x*
#2654799999
0*
#2671780000
x!
#2671999999
0!
#2674580000
x)
#2674799999
0)
#2701279999
x!
x"
#2701500000
1!
1"
#2704079999
x)
x*
#2704299999
1)
1*
#2704779999
x)
#2704999999
0)
#2721780000
x!
#2722000000
0!
#2724580000
x*
#2724799999
0*
#2725280000
x)
#2725499999
1)
#2731779998
x"
#2732000000
0"
#2734579998
x)
#2734799999
0)
#2751280028
x!
#2751500000
1!
#2754080028
x)
#2754299999
1)
#2771779324
x!
#2772000000
0!
#2774579324
x)
#2774799999
0)
#2801296211
x!
x"
x#
x$
#2801500000
1!
1"
1#
1$
#2804096211
x)
x*
x+
#2804299999
1)
1*
1+
#2804796211
x)
x*
#2804999999
0)
0*
#2805496211
x*
#2805699999
1*
#2821850000
0!
#2824649999
0*
#2825349999
1)
#2831850000
0"
#2834649999
0)
#2851350000
1!
#2851780000
x#
#2852000000
0#
#2854149999
1)
#2854579999
x+
#2854799999
0+
#2855279999
x*
#2855499999
1*
#2871780000
x!
#2872000000
0!
#2874580000
x)
#2874799999
0)
#2891779999
x$
#2892000000
0$
#2894579999
x*
#2894799999
0*
#2901280000
x!
x"
#2901500000
1!
1"
#2904080000
x)
x*
#2904299999
1)
1*
#2904780000
x)
#2904999999
0)
#2921779998
x!
#2921999999
0!
#2924579998
x*
#2924799999
0*
#2925279998
x)
#2925499999
1)
#2931780028
x"
#2932000000
0"
#2934580028
x)
#2934799999
0)
#2951279309
x!
#2951500000
1!
#2954079309
x)
#2954299999
1)
#2971796570
x!
#2971999999
0!
#2974596570
x)
#2974799999
0)
#3001350000
1!
1"
1#
#3004149999
1)
1*
#3004849999
0)
0*
#3005549999
1+
#3021849999
0!
#3025349999
1)
1*
#3026049999
0+
#3031850000
0"
#3034649999
0)
#3051350000
1!
#3051779999
x#
#3051999999
0#
#3054149999
1)
#3054579999
x*
#3054799999
0*
#3071780000
x!
#3072000000
0!
#3074580000
x)
#3074799999
0)
#3101279999
x!
x"
#3101500000
1!
1"
#3104079999
x)
x*
#3104299999
1)
1*
#3104779999
x)
#3104999999
0)
#3121780000
x!
#3122000000
0!
#3124580000
x*
#3124799999
0*
#3125280000
x)
#3125499999
1)
#3131779998
x"
#3132000000
0"
#3134579998
x)
#3134799999
0)
#3151280030
x!
#3151500000
1!
#3154080030
x)
#3154299999
1)
#3171779275
x!
#3172000000
0!
#3174579275
x)
#3174799999
0)
#3201297391
x!
x"
x#
x$
x%
x&
x'
#3201500000
1!
1"
1#
1$
1%
1&
1'
#3204097391
x)
x*
x+
x,
x-
#3204299999
1)
1*
1+
1,
1-
#3204797391
x)
x*
x+
x,
#3204999999
0)
0*
0+
0,
#3205497391
x*
x+
#3205699999
1*
1+
#3221850000
0!
#3224649999
0*
#3225349999
1)
#3231850000
0"
#3234649999
0)
#3251350000
1!
#3251780000
x#
#3252000000
0#
#3254149999
1)
#3254579999
x+
#3254799999
0+
#3255279999
x*
#3255499999
1*
#3271780000
x!
#3271999999
0!
#3274580000
x)
#3274799999
0)
#3291779999
x$
#3292000000
0$
#3294579999
x*
#3294799999
0*
#3301280000
x!
x"
#3301500000
1!
1"
#3304080000
x)
x*
#3304299999
1)
1*
#3304780000
x)
#3304999999
0)
#3321779998
x!
#3321999999
0!
#3324579998
x*
#3324799999
0*
#3325279998
x)
#3325499999
1)
#3331780028
x"
#3332000000
0"
#3334580028
x)
#3334799999
0)
#3351279309
x!
#3351500000
1!
#3354079309
x)
#3354299999
1)
#3371796570
x!
x%
#3371999999
0!
0%
#3374596570
x)
x-
#3374799999
0)
0-
#3375296570
x+
x,
#3375499999
1+
1,
#3401350000
1!
1"
1#
#3404149999
1)
1*
#3404849999
0)
0*
#3406249999
0+
#3406949999
1-
#3407649999
0,
#3421850000
0!
#3425349999
1)
1*
#3426749999
1+
#3427449999
0-
#3428149999
1,
#3431850000
0"
#3434650000
0)
#3451350000
1!
#3451780000
x#
#3452000000
0#
#3454150000
1)
#3454579999
x*
#3454799999
0*
#3471780000
x!
#3472000000
0!
#3474580000
x)
#3474799999
0)
#3501279999
x!
x"
#3501500000
1!
1"
#3504079999
x)
x*
#3504299999
1)
1*
#3504779999
x)
#3504999999
0)
#3521780000
x!
#3522000000
0!
#3524580000
x*
#3524799999
0*
#3525280000
x)
#3525499999
1)
#3531779998
x"
x&
#3532000000
0"
0&
#3534579998
x)
x+
#3534799999
0)
0+
#3551280028
x!
#3551500000
1!
#3554080028
x)
#3554299999
1)
#3571779324
x!
#3572000000
0!
#3574579324
x)
#3574799999
0)
#3601296209
x!
x"
x#
x$
#3601500000
1!
1"
1#
1$
#3604096209
x)
x*
x+
#3604299999
1)
1*
1+
#3604796209
x)
x*
#3604999999
0)
0*
#3605496209
x*
#3605699999
1*
#3621850000
0!
#3624649999
0*
#3625349999
1)
#3631850000
0"
#3634649999
0)
#3651350000
1!
#3651780000
x#
#3652000000
0#
#3654149999
1)
#3654579999
x+
#3654799999
0+
#3655279999
x*
#3655499999
1*
#3671780000
x!
#3671999999
0!
#3674580000
x)
#3674799999
0)
#3691779999
x$
#3692000000
0$
#3694579999
x*
#3694799999
0*
#3701280000
x!
x"
#3701500000
1!
1"
#3704080000
x)
x*
#3704299999
1)
1*
#3704780000
x)
#3704999999
0)
#3721779998
x!
#3721999999
0!
#3724579998
x*
#3724799999
0*
#3725279998
x)
#3725499999
1)
#3731780028
x"
#3732000000
0"
#3734580028
x)
#3734799999
0)
#3751279309
x!
#3751500000
1!
#3754079309
x)
#3754300000
1)
#3771796570
x!
#3772000000
0!
#3774596570
x)
#3774799999
0)
#3801350000
1!
1"
1#
#3804149999
1)
1*
#3804849999
0)
0*
#3805549999
1+
#3821849999
0!
#3825349999
1)
1*
#3826049999
0+
#3831849999
0"
#3834649999
0)
#3851350000
1!
#3851779999
x#
x'
#3851999999
0#
0'
#3854149999
1)
#3854579999
x*
x,
#3854799999
0*
0,
#3871779999
x!
#3872000000
0!
#3874579999
x)
#3874799999
0)
#3901280000
x!
x"
#3901500000
1!
1"
#3904080000
x)
x*
#3904299999
1)
1*
#3904780000
x)
#3904999999
0)
#3921779999
x!
#3922000000
0!
#3924579999
x*
#3924799999
0*
#3925279999
x)
#3925499999
1)
#3931780001
x"
#3932000000
0"
#3934580001
x)
#3934799999
0)
#3951279961
x!
#3951500000
1!
#3954079961
x)
#3954299999
1)
#3971780913
x!
#3972000000
0!
#3974580913
x)
#3974799999
0)
#4001258081
x!
x"
x#
x$
x%
#4001499999
1!
1"
1#
1$
1%
#4004058081
x)
x*
x+
#4004299999
1)
1*
1+
#4004758081
x)
x*
x+
#4004999999
0)
0*
0+
#4005458081
x*
x,
#4005699999
1*
1,
#4021850000
0!
#4024649999
0*
#4025349999
1)
#4031850000
0"
#4034649999
0)
#4051350000
1!
#4051780000
x#
#4052000000
0#
#4054150000
1)
#4055279999
x*
x+
#4055500000
1*
1+
#4055979999
x,
#4056200000
0,
#4071779999
x!
#4072000000
0!
#4074579999
x)
#4074799999
0)
#4091780000
x$
#4092000000
0$
#4094580000
x*
#4094800000
0*
#4101279999
x!
x"
#4101500000
1!
1"
#4104079999
x)
x*
#4104300000
1)
1*
#4104779999
x)
#4104999999
0)
#4121780001
x!
#4122000000
0!
#4124580001
x*
#4124800000
0*
#4125280001
x)
#4125499999
1)
#4131779953
x"
#4132000000
0"
#4134579953
x)
#4134800000
0)
#4151281124
x!
#4151500000
1!
#4154081124
x)
#4154299999
1)
#4171753006
x!
x%
#4172000000
0!
0%
#4174553006
x)
x+
#4174799999
0)
0+
#4201350000
1!
1"
1#
#4204149999
1)
1*
#4204849999
0)
0*
#4205549999
1+
#4221850000
0!
#4225349999
1)
1*
#4226049999
0+
#4231850000
0"
#4234649999
0)
#4251350000
1!
#4251780000
x#
#4252000000
0#
#4254149999
1)
#4254579999
x*
#4254800000
0*
#4271779999
x!
#4272000000
0!
#4274579999
x)
#4274799999
0)
#4301280000
x!
x"
#4301500000
1!
1"
#4304080000
x)
x*
#4304300000
1)
1*
#4304780000
x)
#4304999999
0)
#4321779999
x!
#4322000000
0!
#4324579999
x*
#4324800000
0*
#4325279999
x)
#4325499999
1)
#4331780001
x"
#4332000000
0"
#4334580001
x)
#4334800000
0)
#4351279954
x!
#4351500000
1!
#4354079954
x)
#4354300000
1)
#4371781102
x!
#4372000000
0!
#4374581102
x)
#4374800000
0)
#4401253548
x!
x"
x#
x$
#4401500000
1!
1"
1#
1$
#4404053548
x)
x*
x+
#4404299999
1)
1*
1+
#4404753548
x)
x*
#4404999999
0)
0*
#4405453548
x*
#4405699999
1*
#4421850000
0!
#4424649999
0*
#4425349999
1)
#4431850000
0"
#4434649999
0)
#4451350000
1!
#4451780000
x#
#4452000000
0#
#4454150000
1)
#4454580000
x+
#4454800000
0+
#4455280000
x*
#4455500000
1*
#4471779999
x!
#4472000000
0!
#4474579999
x)
#4474800000
0)
#4491780000
x$
#4492000000
0$
#4494580000
x*
#4494800000
0*
#4501279999
x!
x"
#4501500000
1!
1"
#4504079999
x)
x*
#4504299999
1)
1*
#4504779999
x)
#4504999999
0)
#4521780001
x!
#4522000000
0!
#4524580001
x*
#4524799999
0*
#4525280001
x)
#4525499999
1)
#4531779953
x"
#4532000000
0"
#4534579953
x)
#4534799999
0)
#4551281120
x!
#4551500000
1!
#4554081120
x)
#4554300000
1)
#4571753101
x!
#4572000000
0!
#4574553101
x)
#4574800000
0)
#4601350000
1!
1"
1#
#4604149999
1)
1*
#4604849999
0)
0*
#4605549999
1+
#4621850000
0!
#4625349999
1)
1*
#4626049999
0+
#4631850000
0"
#4634649999
0)
#4651350000
1!
#4651780000
x#
#4652000000
0#
#4654149999
1)
#4654580000
x*
#4654800000
0*
#4671779999
x!
#4672000000
0!
#4674579999
x)
#4674800000
0)
#4701280000
x!
x"
#4701500000
1!
1"
#4704080000
x)
x*
#4704299999
1)
1*
#4704780000
x)
#4704999999
0)
#4721779999
x!
#4722000000
0!
#4724579999
x*
#4724800000
0*
#4725279999
x)
#4725500000
1)
#4731780001
x"
#4732000000
0"
#4734580001
x)
#4734800000
0)
#4751279954
x!
#4751500000
1!
#4754079954
x)
#4754300000
1)
#4771781098
x!
#4772000000
0!
#4774581098
x)
#4774800000
0)
#4801253647
x!
x"
x#
x$
x%
x&
#4801500000
1!
1"
1#
1$
1%
1&
#4804053647
x)
x*
x+
x,
#4804299999
1)
1*
1+
1,
#4804753647
x)
x*
x+
#4804999999
0)
0*
0+
#4805453647
x*
x+
#4805699999
1*
1+
#4821850000
0!
#4824650000
0*
#4825349999
1)
#4831850000
0"
#4834650000
0)
#4851350000
1!
#4851780000
x#
#4852000000
0#
#4854150000
1)
#4854579999
x+
#4854800000
0+
#4855279999
x*
#4855500000
1*
#4871779999
x!
#4872000000
0!
#4874579999
x)
#4874799999
0)
#4891780000
x$
#4892000000
0$
#4894580000
x*
#4894800000
0*
#4901279999
x!
x"
#4901500000
1!
1"
#4904079999
x)
x*
#4904300000
1)
1*
#4904779999
x)
#4905000000
0)
#4921780001
x!
#4922000000
0!
#4924580001
x*
#4924800000
0*
#4925280001
x)
#4925500000
1)
#4931779953
x"
#4932000000
0"
#4934579953
x)
#4934800000
0)
#4951281124
x!
#4951500000
1!
#4954081124
x)
#4954299999
1)
#4971753006
x!
x%
#4972000000
0!
0%
#4974553006
x)
x,
#4974799999
0)
0,
#4975253006
x+
#4975499999
1+
#5001350000
1!
1"
1#
#5004149999
1)
1*
#5004849999
0)
0*
#5006249999
0+
#5006949999
1,
#5021850000
0!
#5025349999
1)
1*
#5026749999
1+
#5027449999
0,
#5031850000
0"
#5034649999
0)
#5051350000
1!
#5051780000
x#
#5052000000
0#
#5054150000
1)
#5054580000
x*
#5054800000
0*
#5071779999
x!
#5072000000
0!
#5074579999
x)
#5074800000
0)
#5101280000
x!
x"
#5101500000
1!
1"
#5104080000
x)
x*
#5104300000
1)
1*
#5104780000
x)
#5104999999
0)
#5121779999
x!
#5122000000
0!
#5124579999
x*
#5124800000
0*
#5125279999
x)
#5125499999
1)
#5131780001
x"
x&
#5132000000
0"
0&
#5134580001
x)
x+
#5134800000
0)
0+
#5151279954
x!
#5151500000
1!
#5154079954
x)
#5154300000
1)
#5171781098
x!
#5172000000
0!
#5174581098
x)
#5174800000
0)
#5201253643
x!
x"
x#
x$
#5201500000
1!
1"
1#
1$
#5204053643
x)
x*
x+
#5204299999
1)
1*
1+
#5204753643
x)
x*
#5204999999
0)
0*
#5205453643
x*
#5205699999
1*
#5221850000
0!
#5224649999
0*
#5225349999
1)
#5231850000
0"
#5234649999
0)
#5251350000
1!
#5251780000
x#
#5252000000
0#
#5254149999
1)
#5254580000
x+
#5254800000
0+
#5255280000
x*
#5255500000
1*
#5271779999
x!
#5272000000
0!
#5274579999
x)
#5274800000
0)
#5291780000
x$
#5292000000
0$
#5294580000
x*
#5294800000
0*
#5301279999
x!
x"
#5301500000
1!
1"
#5304079999
x)
x*
#5304299999
1)
1*
#5304779999
x)
#5304999999
0)
#5321780001
x!
#5322000000
0!
#5324580001
x*
#5324799999
0*
#5325280001
x)
#5325499999
1)
#5331779953
x"
#5332000000
0"
#5334579953
x)
#5334799999
0)
#5351281120
x!
#5351500000
1!
#5354081120
x)
#5354300000
1)
#5371753101
x!
#5372000000
0!
#5374553101
x)
#5374800000
0)
#5401350000
1!
1"
1#
#5404149999
1)
1*
#5404849999
0)
0*
#5405549999
1+
#5421850000
0!
#5425350000
1)
1*
#5426049999
0+
#5431850000
0"
#5434650000
0)
#5451350000
1!
#5451780000
x#
#5452000000
0#
#5454150000
1)
#5454580000
x*
#5454800000
0*
#5471779999
x!
#5472000000
0!
#5474579999
x)
#5474800000
0)
#5501280000
x!
x"
#5501500000
1!
1"
#5504080000
x)
x*
#5504300000
1)
1*
#5504780000
x)
#5505000000
0)
#5521779999
x!
#5522000000
0!
#5524579999
x*
#5524800000
0*
#5525279999
x)
#5525500000
1)
#5531780001
x"
#5532000000
0"
#5534580001
x)
#5534800000
0)
#5551279954
x!
#5551500000
1!
#5554079954
x)
#5554299999
1)
#5571781102
x!
#5572000000
0!
#5574581102
x)
#5574800000
0)
#5601253548
x!
x"
x#
x$
x%
#5601500000
1!
1"
1#
1$
1%
#5604053548
x)
x*
x+
#5604300000
1)
1*
1+
#5604753548
x)
x*
x+
#5605000000
0)
0*
0+
#5605453548
x*
x,
#5605700000
1*
1,
#5621850000
0!
#5624650000
0*
#5625349999
1)
#5631850000
0"
#5634649999
0)
#5651350000
1!
#5651780000
x#
#5652000000
0#
#5654150000
1)
#5655279999
x*
x+
#5655500000
1*
1+
#5655979999
x,
#5656200000
0,
#5671779999
x!
#5672000000
0!
#5674579999
x)
#5674799999
0)
#5691780000
x$
#5692000000
0$
#5694580000
x*
#5694800000
0*
#5701279999
x!
x"
#5701500000
1!
1"
#5704079999
x)
x*
#5704300000
1)
1*
#5704779999
x)
#5705000000
0)
#5721780001
x!
#5722000000
0!
#5724580001
x*
#5724800000
0*
#5725280001
x)
#5725500000
1)
#5731779953
x"
#5732000000
0"
#5734579953
x)
#5734800000
0)
#5751281124
x!
#5751500000
1!
#5754081124
x)
#5754300000
1)
#5771753006
x!
x%
#5772000000
0!
0%
#5774553006
x)
x+
#5774800000
0)
0+
#5801350000
1!
1"
1#
#5804149999
1)
1*
#5804849999
0)
0*
#5805549999
1+
#5821850000
0!
#5825349999
1)
1*
#5826049999
0+
#5831850000
0"
#5834649999
0)
#5851350000
1!
#5851780000
x#
#5852000000
0#
#5854150000
1)
#5854580000
x*
#5854800000
0*
#5871779999
x!
#5872000000
0!
#5874579999
x)
#5874800000
0)
#5901280000
x!
x"
#5901500000
1!
1"
#5904080000
x)
x*
#5904300000
1)
1*
#5904780000
x)
#5904999999
0)
#5921779999
x!
#5922000000
0!
#5924579999
x*
#5924800000
0*
#5925279999
x)
#5925499999
1)
#5931780001
x"
#5932000000
0"
#5934580001
x)
#5934799999
0)
#5951279954
x!
#5951500000
1!
#5954079954
x)
#5954300000
1)
#5971781098
x!
#5972000000
0!
#5974581098
x)
#5974800000
0)
#6001253643
x!
x"
x#
x$
#6001500000
1!
1"
1#
1$
#6004053643
x)
x*
x+
#6004299999
1)
1*
1+
#6004753643
x)
x*
#6004999999
0)
0*
#6005453643
x*
#6005699999
1*
#6021850000
0!
#6024649999
0*
#6025349999
1)
#6031850000
0"
#6034649999
0)
#6051350000
1!
#6051780000
x#
#6052000000
0#
#6054149999
1)
