3Bimestre/Quartus 2/PrimeiraAtividade/simulation/qsim/AtividadeAvaliada.msim.vcd
$comment
	File created using the following command:
		vcd file AtividadeAvaliada.msim.vcd -direction
$end
$date
	Mon Sep 11 23:28:15 2023
$end
$version
	ModelSim Version 10.5b
$end
$timescale
	1ps
$end

$scope module AtividadeAvaliada_vlg_vec_tst $end
$var reg 1 ! A0 $end
$var reg 1 " A1 $end
$var reg 1 # B0 $end
$var reg 1 $ B1 $end
$var wire 1 % AigualB $end
$var wire 1 & AmaiorB $end
$var wire 1 ' AmenorB $end

$scope module i1 $end
$var wire 1 ( gnd $end
$var wire 1 ) vcc $end
$var wire 1 * unknown $end
$var tri1 1 + devclrn $end
$var tri1 1 , devpor $end
$var tri1 1 - devoe $end
$var wire 1 . AmenorB~output_o $end
$var wire 1 / AigualB~output_o $end
$var wire 1 0 AmaiorB~output_o $end
$var wire 1 1 B0~input_o $end
$var wire 1 2 B1~input_o $end
$var wire 1 3 A1~input_o $end
$var wire 1 4 A0~input_o $end
$var wire 1 5 inst20~0_combout $end
$var wire 1 6 inst15~0_combout $end
$var wire 1 7 inst7~0_combout $end
$upscope $end
$upscope $end
$enddefinitions $end
#0
$dumpvars
0!
0"
0#
0$
1%
0&
0'
0(
1)
x*
1+
1,
1-
0.
1/
00
01
02
03
04
05
06
07
$end
#10000
1$
12
16
15
1.
0/
0%
1'
#20000
1#
0$
11
02
#30000
1$
12
#40000
1"
0#
0$
13
01
02
17
05
0.
10
1&
0'
#50000
1$
12
06
07
00
1/
1%
0&
#60000
1#
0$
11
02
16
15
1.
0/
0%
1'
#70000
1$
12
#80000
1!
0"
0#
0$
14
03
01
02
17
05
0.
10
1&
0'
#90000
1$
12
#100000
1#
0$
11
02
06
07
00
1/
1%
0&
#110000
1$
12
16
15
1.
0/
0%
1'
#120000
1"
0#
0$
13
01
02
17
05
0.
10
1&
0'
#130000
1$
12
#140000
1#
0$
11
02
#150000
1$
12
06
07
00
1/
1%
0&
#160000
x!
x"
x#
x$
x4
x3
x1
x2
x6
x7
x5
x.
x0
x/
x%
x&
x'
#560000
1!
0"
0#
0$
14
03
01
02
16
17
05
0.
10
0/
0%
1&
0'
#570000
1$
12
#580000
1#
0$
11
02
06
07
00
1/
1%
0&
#590000
1$
12
16
15
1.
0/
0%
1'
#600000
1"
0#
0$
13
01
02
17
05
0.
10
1&
0'
#610000
1$
12
#620000
1#
0$
11
02
#630000
1$
12
06
07
00
1/
1%
0&
#640000
0!
0"
0#
0$
04
03
01
02
#650000
1$
12
16
15
1.
0/
0%
1'
#660000
1#
0$
11
02
#670000
1$
12
#680000
1"
0#
0$
13
01
02
17
05
0.
10
1&
0'
#690000
1$
12
06
07
00
1/
1%
0&
#700000
1#
0$
11
02
16
15
1.
0/
0%
1'
#710000
1$
12
#720000
1!
0"
0#
0$
14
03
01
02
17
05
0.
10
1&
0'
#730000
1$
12
#740000
1#
0$
11
02
06
07
00
1/
1%
0&
#750000
1$
12
16
15
1.
0/
0%
1'
#760000
1"
0#
0$
13
01
02
17
05
0.
10
1&
0'
#770000
1$
12
#780000
1#
0$
11
02
#790000
1$
12
06
07
00
1/
1%
0&
#800000
0!
0"
0#
0$
04
03
01
02
#810000
1$
12
16
15
1.
0/
0%
1'
#820000
1#
0$
11
02
#830000
1$
12
#840000
1"
0#
0$
13
01
02
17
05
0.
10
1&
0'
#850000
1$
12
06
07
00
1/
1%
0&
#860000
1#
0$
11
02
16
15
1.
0/
0%
1'
#870000
1$
12
#880000
1!
0"
0#
0$
14
03
01
02
17
05
0.
10
1&
0'
#890000
1$
12
#900000
1#
0$
11
02
06
07
00
1/
1%
0&
#910000
1$
12
16
15
1.
0/
0%
1'
#920000
1"
0#
0$
13
01
02
17
05
0.
10
1&
0'
#930000
1$
12
#940000
1#
0$
11
02
#950000
1$
12
06
07
00
1/
1%
0&
#960000
0!
0"
0#
0$
04
03
01
02
#970000
1$
12
16
15
1.
0/
0%
1'
#980000
1#
0$
11
02
#990000
1$
12
