4bimestre/Trabalho 2/primeiraparte/simulation/qsim/primeiraparte.msim.vcd
$comment
	File created using the following command:
		vcd file primeiraparte.msim.vcd -direction
$end
$date
	Mon Nov 27 16:13:57 2023
$end
$version
	ModelSim Version 10.5b
$end
$timescale
	1ps
$end

$scope module primeiraparte_vhd_vec_tst $end
$var wire 1 ! clock $end
$var wire 1 " led1 $end
$var wire 1 # led2 $end
$var wire 1 $ reset $end

$scope module i1 $end
$var wire 1 % gnd $end
$var wire 1 & vcc $end
$var wire 1 ' unknown $end
$var wire 1 ( devoe $end
$var wire 1 ) devclrn $end
$var wire 1 * devpor $end
$var wire 1 + ww_devoe $end
$var wire 1 , ww_devclrn $end
$var wire 1 - ww_devpor $end
$var wire 1 . ww_reset $end
$var wire 1 / ww_clock $end
$var wire 1 0 ww_led1 $end
$var wire 1 1 ww_led2 $end
$var wire 1 2 \led1~output_o\ $end
$var wire 1 3 \led2~output_o\ $end
$var wire 1 4 \clock~input_o\ $end
$var wire 1 5 \clock_ajustado|counter[0]~3_combout\ $end
$var wire 1 6 \clock_ajustado|counter[2]~2_combout\ $end
$var wire 1 7 \clock_ajustado|counter~1_combout\ $end
$var wire 1 8 \clock_ajustado|counter~0_combout\ $end
$var wire 1 9 \clock_ajustado|Equal0~0_combout\ $end
$var wire 1 : \clock_ajustado|clock_out~0_combout\ $end
$var wire 1 ; \clock_ajustado|clock_out~q\ $end
$var wire 1 < \reset~input_o\ $end
$var wire 1 = \estado_atual.C~q\ $end
$var wire 1 > \estado_atual.D~q\ $end
$var wire 1 ? \estado_atual.RESET_estado~q\ $end
$var wire 1 @ \proximo_estado.A~combout\ $end
$var wire 1 A \estado_atual.A~q\ $end
$var wire 1 B \estado_atual.B~q\ $end
$var wire 1 C \saida~3_combout\ $end
$var wire 1 D \saida~4_combout\ $end
$var wire 1 E \clock_ajustado|counter\ [3] $end
$var wire 1 F \clock_ajustado|counter\ [2] $end
$var wire 1 G \clock_ajustado|counter\ [1] $end
$var wire 1 H \clock_ajustado|counter\ [0] $end
$var wire 1 I \ALT_INV_reset~input_o\ $end
$upscope $end
$upscope $end
$enddefinitions $end
#0
$dumpvars
1!
0"
0#
1$
0%
1&
x'
1(
1)
1*
1+
1,
1-
1.
1/
00
01
02
03
14
15
06
07
08
09
0:
0;
1<
0=
0>
0?
1@
0A
0B
0C
0D
0I
0E
0F
0G
0H
$end
#5000
0!
0/
04
#10000
1!
1/
14
1H
05
17
#15000
0!
0/
04
#20000
1!
1/
14
0H
1G
15
#25000
0!
0/
04
#30000
1!
1/
14
1H
05
16
07
#35000
0!
0/
04
#40000
1!
1/
14
0H
1F
0G
15
#45000
0!
0/
04
#50000
1!
1/
14
1H
05
17
#55000
0!
0/
04
#60000
1!
1/
14
0H
1G
15
#65000
0!
0/
04
#70000
1!
1/
14
1H
05
06
07
18
#75000
0!
0/
04
#80000
1!
1/
14
0H
0F
0G
1E
15
#85000
0!
0/
04
#90000
1!
0$
1/
0.
0<
14
1I
1H
05
08
19
1:
#95000
0!
0/
04
#100000
1!
1/
14
0H
0E
1;
0:
1?
1A
15
09
1:
0@
#105000
0!
0/
04
#110000
1!
1/
14
1H
05
17
#115000
0!
0/
04
#120000
1!
1/
14
0H
1G
15
#125000
0!
0/
04
#130000
1!
1/
14
1H
05
16
07
#135000
0!
0/
04
#140000
1!
1/
14
0H
1F
0G
15
#145000
0!
0/
04
#150000
1!
1/
14
1H
05
17
#155000
0!
0/
04
#160000
1!
1/
14
0H
1G
15
#165000
0!
0/
04
#170000
1!
1/
14
1H
05
06
07
18
#175000
0!
0/
04
#180000
1!
1/
14
0H
0F
0G
1E
15
#185000
0!
0/
04
#190000
1!
1/
14
1H
05
08
19
0:
#195000
0!
0/
04
#200000
1!
1/
14
0H
0E
0;
1:
15
09
0:
#205000
0!
0/
04
#210000
1!
1/
14
1H
05
17
#215000
0!
0/
04
#220000
1!
1/
14
0H
1G
15
#225000
0!
0/
04
#230000
1!
1/
14
1H
05
16
07
#235000
0!
0/
04
#240000
1!
1/
14
0H
1F
0G
15
#245000
0!
0/
04
#250000
1!
1/
14
1H
05
17
#255000
0!
0/
04
#260000
1!
1/
14
0H
1G
15
#265000
0!
0/
04
#270000
1!
1/
14
1H
05
06
07
18
#275000
0!
0/
04
#280000
1!
1/
14
0H
0F
0G
1E
15
#285000
0!
0/
04
#290000
1!
1/
14
1H
05
08
19
1:
#295000
0!
0/
04
#300000
1!
1/
14
0H
0E
1;
0:
0A
1B
15
09
1:
1C
12
10
1"
#305000
0!
0/
04
#310000
1!
1/
14
1H
05
17
#315000
0!
0/
04
#320000
1!
1/
14
0H
1G
15
#325000
0!
0/
04
#330000
1!
1/
14
1H
05
16
07
#335000
0!
0/
04
#340000
1!
1/
14
0H
1F
0G
15
#345000
0!
0/
04
#350000
1!
1/
14
1H
05
17
#355000
0!
0/
04
#360000
1!
1/
14
0H
1G
15
#365000
0!
0/
04
#370000
1!
1/
14
1H
05
06
07
18
#375000
0!
0/
04
#380000
1!
1/
14
0H
0F
0G
1E
15
#385000
0!
0/
04
#390000
1!
1/
14
1H
05
08
19
0:
#395000
0!
0/
04
#400000
1!
1/
14
0H
0E
0;
1:
15
09
0:
#405000
0!
0/
04
#410000
1!
1/
14
1H
05
17
#415000
0!
0/
04
#420000
1!
1/
14
0H
1G
15
#425000
0!
0/
04
#430000
1!
1/
14
1H
05
16
07
#435000
0!
0/
04
#440000
1!
1/
14
0H
1F
0G
15
#445000
0!
0/
04
#450000
1!
1/
14
1H
05
17
#455000
0!
0/
04
#460000
1!
1/
14
0H
1G
15
#465000
0!
0/
04
#470000
1!
1/
14
1H
05
06
07
18
#475000
0!
0/
04
#480000
1!
1/
14
0H
0F
0G
1E
15
#485000
0!
0/
04
#490000
1!
1/
14
1H
05
08
19
1:
#495000
0!
0/
04
#500000
1!
1/
14
0H
0E
1;
0:
1=
0B
15
09
1:
0C
1D
13
02
11
00
1#
0"
#505000
0!
0/
04
#510000
1!
1/
14
1H
05
17
#515000
0!
0/
04
#520000
1!
1/
14
0H
1G
15
#525000
0!
0/
04
#530000
1!
1/
14
1H
05
16
07
#535000
0!
0/
04
#540000
1!
1/
14
0H
1F
0G
15
#545000
0!
0/
04
#550000
1!
1/
14
1H
05
17
#555000
0!
0/
04
#560000
1!
1/
14
0H
1G
15
#565000
0!
0/
04
#570000
1!
1/
14
1H
05
06
07
18
#575000
0!
0/
04
#580000
1!
1/
14
0H
0F
0G
1E
15
#585000
0!
0/
04
#590000
1!
1/
14
1H
05
08
19
0:
#595000
0!
0/
04
#600000
1!
1/
14
0H
0E
0;
1:
15
09
0:
#605000
0!
0/
04
#610000
1!
1/
14
1H
05
17
#615000
0!
0/
04
#620000
1!
1/
14
0H
1G
15
#625000
0!
0/
04
#630000
1!
1/
14
1H
05
16
07
#635000
0!
0/
04
#640000
1!
1/
14
0H
1F
0G
15
#645000
0!
0/
04
#650000
1!
1/
14
1H
05
17
#655000
0!
0/
04
#660000
1!
1/
14
0H
1G
15
#665000
0!
0/
04
#670000
1!
1/
14
1H
05
06
07
18
#675000
0!
0/
04
#680000
1!
1/
14
0H
0F
0G
1E
15
#685000
0!
0/
04
#690000
1!
1/
14
1H
05
08
19
1:
#695000
0!
0/
04
#700000
1!
1/
14
0H
0E
1;
0:
0=
1>
15
09
1:
1@
1C
12
10
1"
#705000
0!
0/
04
#710000
1!
1/
14
1H
05
17
#715000
0!
0/
04
#720000
1!
1/
14
0H
1G
15
#725000
0!
0/
04
#730000
1!
1$
1/
1.
1<
14
0I
1H
0>
0?
05
16
07
0C
0D
03
02
01
00
0#
0"
#735000
0!
0/
04
#740000
1!
1/
14
0H
1F
0G
15
#745000
0!
0/
04
#750000
1!
1/
14
1H
05
17
#755000
0!
0/
04
#760000
1!
1/
14
0H
1G
15
#765000
0!
0/
04
#770000
1!
1/
14
1H
05
06
07
18
#775000
0!
0/
04
#780000
1!
1/
14
0H
0F
0G
1E
15
#785000
0!
0/
04
#790000
1!
1/
14
1H
05
08
19
0:
#795000
0!
0/
04
#800000
1!
1/
14
0H
0E
0;
1:
15
09
0:
#805000
0!
0/
04
#810000
1!
1/
14
1H
05
17
#815000
0!
0/
04
#820000
1!
0$
1/
0.
0<
14
1I
0H
1G
15
#825000
0!
0/
04
#830000
1!
1/
14
1H
05
16
07
#835000
0!
0/
04
#840000
1!
1/
14
0H
1F
0G
15
#845000
0!
0/
04
#850000
1!
1/
14
1H
05
17
#855000
0!
0/
04
#860000
1!
1/
14
0H
1G
15
#865000
0!
0/
04
#870000
1!
1/
14
1H
05
06
07
18
#875000
0!
0/
04
#880000
1!
1/
14
0H
0F
0G
1E
15
#885000
0!
0/
04
#890000
1!
1/
14
1H
05
08
19
1:
#895000
0!
0/
04
#900000
1!
1/
14
0H
0E
1;
0:
1?
1A
15
09
1:
0@
#905000
0!
0/
04
#910000
1!
1/
14
1H
05
17
#915000
0!
0/
04
#920000
1!
1/
14
0H
1G
15
#925000
0!
0/
04
#930000
1!
1/
14
1H
05
16
07
#935000
0!
0/
04
#940000
1!
1/
14
0H
1F
0G
15
#945000
0!
0/
04
#950000
1!
1/
14
1H
05
17
#955000
0!
0/
04
#960000
1!
1/
14
0H
1G
15
#965000
0!
0/
04
#970000
1!
1/
14
1H
05
06
07
18
#975000
0!
0/
04
#980000
1!
1/
14
0H
0F
0G
1E
15
#985000
0!
0/
04
#990000
1!
1/
14
1H
05
08
19
0:
#995000
0!
0/
04
