4bimestre/Trabalho 2/primeiraparte/simulation/qsim/primeiraparte.msim.vcd
$comment
	File created using the following command:
		vcd file primeiraparte.msim.vcd -direction
$end
$date
	Tue Nov 28 13:26:35 2023
$end
$version
	ModelSim Version 10.5b
$end
$timescale
	1ps
$end

$scope module divisor_vhd_vec_tst $end
$var wire 1 ! clock_in $end
$var wire 1 " clock_out $end

$scope module i1 $end
$var wire 1 # gnd $end
$var wire 1 $ vcc $end
$var wire 1 % unknown $end
$var wire 1 & devoe $end
$var wire 1 ' devclrn $end
$var wire 1 ( devpor $end
$var wire 1 ) ww_devoe $end
$var wire 1 * ww_devclrn $end
$var wire 1 + ww_devpor $end
$var wire 1 , ww_clock_in $end
$var wire 1 - ww_clock_out $end
$var wire 1 . \clock_out~output_o\ $end
$var wire 1 / \clock_in~input_o\ $end
$var wire 1 0 \counter[0]~1_combout\ $end
$var wire 1 1 \counter[1]~0_combout\ $end
$var wire 1 2 \clock_out~0_combout\ $end
$var wire 1 3 \clock_out~reg0_q\ $end
$var wire 1 4 counter [1] $end
$var wire 1 5 counter [0] $end
$upscope $end
$upscope $end
$enddefinitions $end
#0
$dumpvars
1!
0"
0#
1$
x%
1&
1'
1(
1)
1*
1+
1,
0-
0.
1/
10
01
02
03
04
05
$end
#2000
0!
0,
0/
#4000
1!
1,
1/
15
00
11
#6000
0!
0,
0/
#8000
1!
1,
1/
05
14
10
#10000
0!
0,
0/
#12000
1!
1,
1/
15
00
01
12
#14000
0!
0,
0/
#16000
1!
1,
1/
05
04
13
10
1.
1-
1"
#18000
0!
0,
0/
#20000
1!
1,
1/
15
00
11
#22000
0!
0,
0/
#24000
1!
1,
1/
05
14
10
#26000
0!
0,
0/
#28000
1!
1,
1/
15
00
01
02
#30000
0!
0,
0/
#32000
1!
1,
1/
05
04
03
10
0.
0-
0"
#34000
0!
0,
0/
#36000
1!
1,
1/
15
00
11
#38000
0!
0,
0/
#40000
1!
1,
1/
05
14
10
#42000
0!
0,
0/
#44000
1!
1,
1/
15
00
01
12
#46000
0!
0,
0/
#48000
1!
1,
1/
05
04
13
10
1.
1-
1"
#50000
0!
0,
0/
#52000
1!
1,
1/
15
00
11
#54000
0!
0,
0/
#56000
1!
1,
1/
05
14
10
#58000
0!
0,
0/
#60000
1!
1,
1/
15
00
01
02
#62000
0!
0,
0/
#64000
1!
1,
1/
05
04
03
10
0.
0-
0"
#66000
0!
0,
0/
#68000
1!
1,
1/
15
00
11
#70000
0!
0,
0/
#72000
1!
1,
1/
05
14
10
#74000
0!
0,
0/
#76000
1!
1,
1/
15
00
01
12
#78000
0!
0,
0/
#80000
1!
1,
1/
05
04
13
10
1.
1-
1"
#82000
0!
0,
0/
#84000
1!
1,
1/
15
00
11
#86000
0!
0,
0/
#88000
1!
1,
1/
05
14
10
#90000
0!
0,
0/
#92000
1!
1,
1/
15
00
01
02
#94000
0!
0,
0/
#96000
1!
1,
1/
05
04
03
10
0.
0-
0"
#98000
0!
0,
0/
#100000
1!
1,
1/
15
00
11
#102000
0!
0,
0/
#104000
1!
1,
1/
05
14
10
#106000
0!
0,
0/
#108000
1!
1,
1/
15
00
01
12
#110000
0!
0,
0/
#112000
1!
1,
1/
05
04
13
10
1.
1-
1"
#114000
0!
0,
0/
#116000
1!
1,
1/
15
00
11
#118000
0!
0,
0/
#120000
1!
1,
1/
05
14
10
#122000
0!
0,
0/
#124000
1!
1,
1/
15
00
01
02
#126000
0!
0,
0/
#128000
1!
1,
1/
05
04
03
10
0.
0-
0"
#130000
0!
0,
0/
#132000
1!
1,
1/
15
00
11
#134000
0!
0,
0/
#136000
1!
1,
1/
05
14
10
#138000
0!
0,
0/
#140000
1!
1,
1/
15
00
01
12
#142000
0!
0,
0/
#144000
1!
1,
1/
05
04
13
10
1.
1-
1"
#146000
0!
0,
0/
#148000
1!
1,
1/
15
00
11
#150000
0!
0,
0/
#152000
1!
1,
1/
05
14
10
#154000
0!
0,
0/
#156000
1!
1,
1/
15
00
01
02
#158000
0!
0,
0/
#160000
1!
1,
1/
05
04
03
10
0.
0-
0"
#162000
0!
0,
0/
#164000
1!
1,
1/
15
00
11
#166000
0!
0,
0/
#168000
1!
1,
1/
05
14
10
#170000
0!
0,
0/
#172000
1!
1,
1/
15
00
01
12
#174000
0!
0,
0/
#176000
1!
1,
1/
05
04
13
10
1.
1-
1"
#178000
0!
0,
0/
#180000
1!
1,
1/
15
00
11
#182000
0!
0,
0/
#184000
1!
1,
1/
05
14
10
#186000
0!
0,
0/
#188000
1!
1,
1/
15
00
01
02
#190000
0!
0,
0/
#192000
1!
1,
1/
05
04
03
10
0.
0-
0"
#194000
0!
0,
0/
#196000
1!
1,
1/
15
00
11
#198000
0!
0,
0/
#200000
1!
1,
1/
05
14
10
#202000
0!
0,
0/
#204000
1!
1,
1/
15
00
01
12
#206000
0!
0,
0/
#208000
1!
1,
1/
05
04
13
10
1.
1-
1"
#210000
0!
0,
0/
#212000
1!
1,
1/
15
00
11
#214000
0!
0,
0/
#216000
1!
1,
1/
05
14
10
#218000
0!
0,
0/
#220000
1!
1,
1/
15
00
01
02
#222000
0!
0,
0/
#224000
1!
1,
1/
05
04
03
10
0.
0-
0"
#226000
0!
0,
0/
#228000
1!
1,
1/
15
00
11
#230000
0!
0,
0/
#232000
1!
1,
1/
05
14
10
#234000
0!
0,
0/
#236000
1!
1,
1/
15
00
01
12
#238000
0!
0,
0/
#240000
1!
1,
1/
05
04
13
10
1.
1-
1"
#242000
0!
0,
0/
#244000
1!
1,
1/
15
00
11
#246000
0!
0,
0/
#248000
1!
1,
1/
05
14
10
#250000
0!
0,
0/
#252000
1!
1,
1/
15
00
01
02
#254000
0!
0,
0/
#256000
1!
1,
1/
05
04
03
10
0.
0-
0"
#258000
0!
0,
0/
#260000
1!
1,
1/
15
00
11
#262000
0!
0,
0/
#264000
1!
1,
1/
05
14
10
#266000
0!
0,
0/
#268000
1!
1,
1/
15
00
01
12
#270000
0!
0,
0/
#272000
1!
1,
1/
05
04
13
10
1.
1-
1"
#274000
0!
0,
0/
#276000
1!
1,
1/
15
00
11
#278000
0!
0,
0/
#280000
1!
1,
1/
05
14
10
#282000
0!
0,
0/
#284000
1!
1,
1/
15
00
01
02
#286000
0!
0,
0/
#288000
1!
1,
1/
05
04
03
10
0.
0-
0"
#290000
0!
0,
0/
#292000
1!
1,
1/
15
00
11
#294000
0!
0,
0/
#296000
1!
1,
1/
05
14
10
#298000
0!
0,
0/
#300000
1!
1,
1/
15
00
01
12
#302000
0!
0,
0/
#304000
1!
1,
1/
05
04
13
10
1.
1-
1"
#306000
0!
0,
0/
#308000
1!
1,
1/
15
00
11
#310000
0!
0,
0/
#312000
1!
1,
1/
05
14
10
#314000
0!
0,
0/
#316000
1!
1,
1/
15
00
01
02
#318000
0!
0,
0/
#320000
1!
1,
1/
05
04
03
10
0.
0-
0"
#322000
0!
0,
0/
#324000
1!
1,
1/
15
00
11
#326000
0!
0,
0/
#328000
1!
1,
1/
05
14
10
#330000
0!
0,
0/
#332000
1!
1,
1/
15
00
01
12
#334000
0!
0,
0/
#336000
1!
1,
1/
05
04
13
10
1.
1-
1"
#338000
0!
0,
0/
#340000
1!
1,
1/
15
00
11
#342000
0!
0,
0/
#344000
1!
1,
1/
05
14
10
#346000
0!
0,
0/
#348000
1!
1,
1/
15
00
01
02
#350000
0!
0,
0/
#352000
1!
1,
1/
05
04
03
10
0.
0-
0"
#354000
0!
0,
0/
#356000
1!
1,
1/
15
00
11
#358000
0!
0,
0/
#360000
1!
1,
1/
05
14
10
#362000
0!
0,
0/
#364000
1!
1,
1/
15
00
01
12
#366000
0!
0,
0/
#368000
1!
1,
1/
05
04
13
10
1.
1-
1"
#370000
0!
0,
0/
#372000
1!
1,
1/
15
00
11
#374000
0!
0,
0/
#376000
1!
1,
1/
05
14
10
#378000
0!
0,
0/
#380000
1!
1,
1/
15
00
01
02
#382000
0!
0,
0/
#384000
1!
1,
1/
05
04
03
10
0.
0-
0"
#386000
0!
0,
0/
#388000
1!
1,
1/
15
00
11
#390000
0!
0,
0/
#392000
1!
1,
1/
05
14
10
#394000
0!
0,
0/
#396000
1!
1,
1/
15
00
01
12
#398000
0!
0,
0/
#400000
1!
1,
1/
05
04
13
10
1.
1-
1"
#402000
0!
0,
0/
#404000
1!
1,
1/
15
00
11
#406000
0!
0,
0/
#408000
1!
1,
1/
05
14
10
#410000
0!
0,
0/
#412000
1!
1,
1/
15
00
01
02
#414000
0!
0,
0/
#416000
1!
1,
1/
05
04
03
10
0.
0-
0"
#418000
0!
0,
0/
#420000
1!
1,
1/
15
00
11
#422000
0!
0,
0/
#424000
1!
1,
1/
05
14
10
#426000
0!
0,
0/
#428000
1!
1,
1/
15
00
01
12
#430000
0!
0,
0/
#432000
1!
1,
1/
05
04
13
10
1.
1-
1"
#434000
0!
0,
0/
#436000
1!
1,
1/
15
00
11
#438000
0!
0,
0/
#440000
1!
1,
1/
05
14
10
#442000
0!
0,
0/
#444000
1!
1,
1/
15
00
01
02
#446000
0!
0,
0/
#448000
1!
1,
1/
05
04
03
10
0.
0-
0"
#450000
0!
0,
0/
#452000
1!
1,
1/
15
00
11
#454000
0!
0,
0/
#456000
1!
1,
1/
05
14
10
#458000
0!
0,
0/
#460000
1!
1,
1/
15
00
01
12
#462000
0!
0,
0/
#464000
1!
1,
1/
05
04
13
10
1.
1-
1"
#466000
0!
0,
0/
#468000
1!
1,
1/
15
00
11
#470000
0!
0,
0/
#472000
1!
1,
1/
05
14
10
#474000
0!
0,
0/
#476000
1!
1,
1/
15
00
01
02
#478000
0!
0,
0/
#480000
1!
1,
1/
05
04
03
10
0.
0-
0"
#482000
0!
0,
0/
#484000
1!
1,
1/
15
00
11
#486000
0!
0,
0/
#488000
1!
1,
1/
05
14
10
#490000
0!
0,
0/
#492000
1!
1,
1/
15
00
01
12
#494000
0!
0,
0/
#496000
1!
1,
1/
05
04
13
10
1.
1-
1"
#498000
0!
0,
0/
#500000
1!
1,
1/
15
00
11
#502000
0!
0,
0/
#504000
1!
1,
1/
05
14
10
#506000
0!
0,
0/
#508000
1!
1,
1/
15
00
01
02
#510000
0!
0,
0/
#512000
1!
1,
1/
05
04
03
10
0.
0-
0"
#514000
0!
0,
0/
#516000
1!
1,
1/
15
00
11
#518000
0!
0,
0/
#520000
1!
1,
1/
05
14
10
#522000
0!
0,
0/
#524000
1!
1,
1/
15
00
01
12
#526000
0!
0,
0/
#528000
1!
1,
1/
05
04
13
10
1.
1-
1"
#530000
0!
0,
0/
#532000
1!
1,
1/
15
00
11
#534000
0!
0,
0/
#536000
1!
1,
1/
05
14
10
#538000
0!
0,
0/
#540000
1!
1,
1/
15
00
01
02
#542000
0!
0,
0/
#544000
1!
1,
1/
05
04
03
10
0.
0-
0"
#546000
0!
0,
0/
#548000
1!
1,
1/
15
00
11
#550000
0!
0,
0/
#552000
1!
1,
1/
05
14
10
#554000
0!
0,
0/
#556000
1!
1,
1/
15
00
01
12
#558000
0!
0,
0/
#560000
1!
1,
1/
05
04
13
10
1.
1-
1"
#562000
0!
0,
0/
#564000
1!
1,
1/
15
00
11
#566000
0!
0,
0/
#568000
1!
1,
1/
05
14
10
#570000
0!
0,
0/
#572000
1!
1,
1/
15
00
01
02
#574000
0!
0,
0/
#576000
1!
1,
1/
05
04
03
10
0.
0-
0"
#578000
0!
0,
0/
#580000
1!
1,
1/
15
00
11
#582000
0!
0,
0/
#584000
1!
1,
1/
05
14
10
#586000
0!
0,
0/
#588000
1!
1,
1/
15
00
01
12
#590000
0!
0,
0/
#592000
1!
1,
1/
05
04
13
10
1.
1-
1"
#594000
0!
0,
0/
#596000
1!
1,
1/
15
00
11
#598000
0!
0,
0/
#600000
1!
1,
1/
05
14
10
#602000
0!
0,
0/
#604000
1!
1,
1/
15
00
01
02
#606000
0!
0,
0/
#608000
1!
1,
1/
05
04
03
10
0.
0-
0"
#610000
0!
0,
0/
#612000
1!
1,
1/
15
00
11
#614000
0!
0,
0/
#616000
1!
1,
1/
05
14
10
#618000
0!
0,
0/
#620000
1!
1,
1/
15
00
01
12
#622000
0!
0,
0/
#624000
1!
1,
1/
05
04
13
10
1.
1-
1"
#626000
0!
0,
0/
#628000
1!
1,
1/
15
00
11
#630000
0!
0,
0/
#632000
1!
1,
1/
05
14
10
#634000
0!
0,
0/
#636000
1!
1,
1/
15
00
01
02
#638000
0!
0,
0/
#640000
1!
1,
1/
05
04
03
10
0.
0-
0"
#642000
0!
0,
0/
#644000
1!
1,
1/
15
00
11
#646000
0!
0,
0/
#648000
1!
1,
1/
05
14
10
#650000
0!
0,
0/
#652000
1!
1,
1/
15
00
01
12
#654000
0!
0,
0/
#656000
1!
1,
1/
05
04
13
10
1.
1-
1"
#658000
0!
0,
0/
#660000
1!
1,
1/
15
00
11
#662000
0!
0,
0/
#664000
1!
1,
1/
05
14
10
#666000
0!
0,
0/
#668000
1!
1,
1/
15
00
01
02
#670000
0!
0,
0/
#672000
1!
1,
1/
05
04
03
10
0.
0-
0"
#674000
0!
0,
0/
#676000
1!
1,
1/
15
00
11
#678000
0!
0,
0/
#680000
1!
1,
1/
05
14
10
#682000
0!
0,
0/
#684000
1!
1,
1/
15
00
01
12
#686000
0!
0,
0/
#688000
1!
1,
1/
05
04
13
10
1.
1-
1"
#690000
0!
0,
0/
#692000
1!
1,
1/
15
00
11
#694000
0!
0,
0/
#696000
1!
1,
1/
05
14
10
#698000
0!
0,
0/
#700000
1!
1,
1/
15
00
01
02
#702000
0!
0,
0/
#704000
1!
1,
1/
05
04
03
10
0.
0-
0"
#706000
0!
0,
0/
#708000
1!
1,
1/
15
00
11
#710000
0!
0,
0/
#712000
1!
1,
1/
05
14
10
#714000
0!
0,
0/
#716000
1!
1,
1/
15
00
01
12
#718000
0!
0,
0/
#720000
1!
1,
1/
05
04
13
10
1.
1-
1"
#722000
0!
0,
0/
#724000
1!
1,
1/
15
00
11
#726000
0!
0,
0/
#728000
1!
1,
1/
05
14
10
#730000
0!
0,
0/
#732000
1!
1,
1/
15
00
01
02
#734000
0!
0,
0/
#736000
1!
1,
1/
05
04
03
10
0.
0-
0"
#738000
0!
0,
0/
#740000
1!
1,
1/
15
00
11
#742000
0!
0,
0/
#744000
1!
1,
1/
05
14
10
#746000
0!
0,
0/
#748000
1!
1,
1/
15
00
01
12
#750000
0!
0,
0/
#752000
1!
1,
1/
05
04
13
10
1.
1-
1"
#754000
0!
0,
0/
#756000
1!
1,
1/
15
00
11
#758000
0!
0,
0/
#760000
1!
1,
1/
05
14
10
#762000
0!
0,
0/
#764000
1!
1,
1/
15
00
01
02
#766000
0!
0,
0/
#768000
1!
1,
1/
05
04
03
10
0.
0-
0"
#770000
0!
0,
0/
#772000
1!
1,
1/
15
00
11
#774000
0!
0,
0/
#776000
1!
1,
1/
05
14
10
#778000
0!
0,
0/
#780000
1!
1,
1/
15
00
01
12
#782000
0!
0,
0/
#784000
1!
1,
1/
05
04
13
10
1.
1-
1"
#786000
0!
0,
0/
#788000
1!
1,
1/
15
00
11
#790000
0!
0,
0/
#792000
1!
1,
1/
05
14
10
#794000
0!
0,
0/
#796000
1!
1,
1/
15
00
01
02
#798000
0!
0,
0/
#800000
1!
1,
1/
05
04
03
10
0.
0-
0"
#802000
0!
0,
0/
#804000
1!
1,
1/
15
00
11
#806000
0!
0,
0/
#808000
1!
1,
1/
05
14
10
#810000
0!
0,
0/
#812000
1!
1,
1/
15
00
01
12
#814000
0!
0,
0/
#816000
1!
1,
1/
05
04
13
10
1.
1-
1"
#818000
0!
0,
0/
#820000
1!
1,
1/
15
00
11
#822000
0!
0,
0/
#824000
1!
1,
1/
05
14
10
#826000
0!
0,
0/
#828000
1!
1,
1/
15
00
01
02
#830000
0!
0,
0/
#832000
1!
1,
1/
05
04
03
10
0.
0-
0"
#834000
0!
0,
0/
#836000
1!
1,
1/
15
00
11
#838000
0!
0,
0/
#840000
1!
1,
1/
05
14
10
#842000
0!
0,
0/
#844000
1!
1,
1/
15
00
01
12
#846000
0!
0,
0/
#848000
1!
1,
1/
05
04
13
10
1.
1-
1"
#850000
0!
0,
0/
#852000
1!
1,
1/
15
00
11
#854000
0!
0,
0/
#856000
1!
1,
1/
05
14
10
#858000
0!
0,
0/
#860000
1!
1,
1/
15
00
01
02
#862000
0!
0,
0/
#864000
1!
1,
1/
05
04
03
10
0.
0-
0"
#866000
0!
0,
0/
#868000
1!
1,
1/
15
00
11
#870000
0!
0,
0/
#872000
1!
1,
1/
05
14
10
#874000
0!
0,
0/
#876000
1!
1,
1/
15
00
01
12
#878000
0!
0,
0/
#880000
1!
1,
1/
05
04
13
10
1.
1-
1"
#882000
0!
0,
0/
#884000
1!
1,
1/
15
00
11
#886000
0!
0,
0/
#888000
1!
1,
1/
05
14
10
#890000
0!
0,
0/
#892000
1!
1,
1/
15
00
01
02
#894000
0!
0,
0/
#896000
1!
1,
1/
05
04
03
10
0.
0-
0"
#898000
0!
0,
0/
#900000
1!
1,
1/
15
00
11
#902000
0!
0,
0/
#904000
1!
1,
1/
05
14
10
#906000
0!
0,
0/
#908000
1!
1,
1/
15
00
01
12
#910000
0!
0,
0/
#912000
1!
1,
1/
05
04
13
10
1.
1-
1"
#914000
0!
0,
0/
#916000
1!
1,
1/
15
00
11
#918000
0!
0,
0/
#920000
1!
1,
1/
05
14
10
#922000
0!
0,
0/
#924000
1!
1,
1/
15
00
01
02
#926000
0!
0,
0/
#928000
1!
1,
1/
05
04
03
10
0.
0-
0"
#930000
0!
0,
0/
#932000
1!
1,
1/
15
00
11
#934000
0!
0,
0/
#936000
1!
1,
1/
05
14
10
#938000
0!
0,
0/
#940000
1!
1,
1/
15
00
01
12
#942000
0!
0,
0/
#944000
1!
1,
1/
05
04
13
10
1.
1-
1"
#946000
0!
0,
0/
#948000
1!
1,
1/
15
00
11
#950000
0!
0,
0/
#952000
1!
1,
1/
05
14
10
#954000
0!
0,
0/
#956000
1!
1,
1/
15
00
01
02
#958000
0!
0,
0/
#960000
1!
1,
1/
05
04
03
10
0.
0-
0"
#962000
0!
0,
0/
#964000
1!
1,
1/
15
00
11
#966000
0!
0,
0/
#968000
1!
1,
1/
05
14
10
#970000
0!
0,
0/
#972000
1!
1,
1/
15
00
01
12
#974000
0!
0,
0/
#976000
1!
1,
1/
05
04
13
10
1.
1-
1"
#978000
0!
0,
0/
#980000
1!
1,
1/
15
00
11
#982000
0!
0,
0/
#984000
1!
1,
1/
05
14
10
#986000
0!
0,
0/
#988000
1!
1,
1/
15
00
01
02
#990000
0!
0,
0/
#992000
1!
1,
1/
05
04
03
10
0.
0-
0"
#994000
0!
0,
0/
#996000
1!
1,
1/
15
00
11
#998000
0!
0,
0/
