4bimestre/Trabalho 2/primeiraparte/simulation/qsim/primeiraparte.msim.vcd
$comment
	File created using the following command:
		vcd file primeiraparte.msim.vcd -direction
$end
$date
	Mon Nov 27 21:04:51 2023
$end
$version
	ModelSim Version 10.5b
$end
$timescale
	1ps
$end

$scope module divisor_vhd_vec_tst $end
$var wire 1 ! clock_in $end
$var wire 1 " clock_out $end

$scope module i1 $end
$var wire 1 # gnd $end
$var wire 1 $ vcc $end
$var wire 1 % unknown $end
$var wire 1 & devoe $end
$var wire 1 ' devclrn $end
$var wire 1 ( devpor $end
$var wire 1 ) ww_devoe $end
$var wire 1 * ww_devclrn $end
$var wire 1 + ww_devpor $end
$var wire 1 , ww_clock_in $end
$var wire 1 - ww_clock_out $end
$var wire 1 . \clock_out~output_o\ $end
$var wire 1 / \clock_in~input_o\ $end
$var wire 1 0 \counter[0]~3_combout\ $end
$var wire 1 1 \counter[2]~2_combout\ $end
$var wire 1 2 \counter~1_combout\ $end
$var wire 1 3 \counter~0_combout\ $end
$var wire 1 4 \clock_out~0_combout\ $end
$var wire 1 5 \clock_out~1_combout\ $end
$var wire 1 6 \clock_out~reg0_q\ $end
$var wire 1 7 counter [3] $end
$var wire 1 8 counter [2] $end
$var wire 1 9 counter [1] $end
$var wire 1 : counter [0] $end
$upscope $end
$upscope $end
$enddefinitions $end
#0
$dumpvars
1!
0"
0#
1$
x%
1&
1'
1(
1)
1*
1+
1,
0-
0.
1/
10
01
02
03
14
05
06
07
08
09
0:
$end
#10000
0!
0,
0/
#20000
1!
1,
1/
1:
00
13
#30000
0!
0,
0/
#40000
1!
1,
1/
0:
19
10
#50000
0!
0,
0/
#60000
1!
1,
1/
1:
00
11
03
#70000
0!
0,
0/
#80000
1!
1,
1/
0:
18
09
10
#90000
0!
0,
0/
#100000
1!
1,
1/
1:
00
13
#110000
0!
0,
0/
#120000
1!
1,
1/
0:
19
10
#130000
0!
0,
0/
#140000
1!
1,
1/
1:
00
01
12
03
#150000
0!
0,
0/
#160000
1!
1,
1/
0:
08
17
09
04
10
#170000
0!
0,
0/
#180000
1!
1,
1/
1:
00
02
15
#190000
0!
0,
0/
#200000
1!
1,
1/
0:
07
16
14
10
1.
1-
1"
#210000
0!
0,
0/
#220000
1!
1,
1/
1:
00
13
#230000
0!
0,
0/
#240000
1!
1,
1/
0:
19
10
#250000
0!
0,
0/
#260000
1!
1,
1/
1:
00
11
03
#270000
0!
0,
0/
#280000
1!
1,
1/
0:
18
09
10
#290000
0!
0,
0/
#300000
1!
1,
1/
1:
00
13
#310000
0!
0,
0/
#320000
1!
1,
1/
0:
19
10
#330000
0!
0,
0/
#340000
1!
1,
1/
1:
00
01
12
03
#350000
0!
0,
0/
#360000
1!
1,
1/
0:
08
17
09
04
10
#370000
0!
0,
0/
#380000
1!
1,
1/
1:
00
02
05
#390000
0!
0,
0/
#400000
1!
1,
1/
0:
07
06
14
10
0.
0-
0"
#410000
0!
0,
0/
#420000
1!
1,
1/
1:
00
13
#430000
0!
0,
0/
#440000
1!
1,
1/
0:
19
10
#450000
0!
0,
0/
#460000
1!
1,
1/
1:
00
11
03
#470000
0!
0,
0/
#480000
1!
1,
1/
0:
18
09
10
#490000
0!
0,
0/
#500000
1!
1,
1/
1:
00
13
#510000
0!
0,
0/
#520000
1!
1,
1/
0:
19
10
#530000
0!
0,
0/
#540000
1!
1,
1/
1:
00
01
12
03
#550000
0!
0,
0/
#560000
1!
1,
1/
0:
08
17
09
04
10
#570000
0!
0,
0/
#580000
1!
1,
1/
1:
00
02
15
#590000
0!
0,
0/
#600000
1!
1,
1/
0:
07
16
14
10
1.
1-
1"
#610000
0!
0,
0/
#620000
1!
1,
1/
1:
00
13
#630000
0!
0,
0/
#640000
1!
1,
1/
0:
19
10
#650000
0!
0,
0/
#660000
1!
1,
1/
1:
00
11
03
#670000
0!
0,
0/
#680000
1!
1,
1/
0:
18
09
10
#690000
0!
0,
0/
#700000
1!
1,
1/
1:
00
13
#710000
0!
0,
0/
#720000
1!
1,
1/
0:
19
10
#730000
0!
0,
0/
#740000
1!
1,
1/
1:
00
01
12
03
#750000
0!
0,
0/
#760000
1!
1,
1/
0:
08
17
09
04
10
#770000
0!
0,
0/
#780000
1!
1,
1/
1:
00
02
05
#790000
0!
0,
0/
#800000
1!
1,
1/
0:
07
06
14
10
0.
0-
0"
#810000
0!
0,
0/
#820000
1!
1,
1/
1:
00
13
#830000
0!
0,
0/
#840000
1!
1,
1/
0:
19
10
#850000
0!
0,
0/
#860000
1!
1,
1/
1:
00
11
03
#870000
0!
0,
0/
#880000
1!
1,
1/
0:
18
09
10
#890000
0!
0,
0/
#900000
1!
1,
1/
1:
00
13
#910000
0!
0,
0/
#920000
1!
1,
1/
0:
19
10
#930000
0!
0,
0/
#940000
1!
1,
1/
1:
00
01
12
03
#950000
0!
0,
0/
#960000
1!
1,
1/
0:
08
17
09
04
10
#970000
0!
0,
0/
#980000
1!
1,
1/
1:
00
02
15
#990000
0!
0,
0/
