4bimestre/Trabalho 2/primeiraparte/simulation/qsim/primeiraparte.msim.vcd
$comment
	File created using the following command:
		vcd file primeiraparte.msim.vcd -direction
$end
$date
	Thu Nov 23 14:48:13 2023
$end
$version
	ModelSim Version 10.5b
$end
$timescale
	1ps
$end

$scope module primeiraparte_vhd_vec_tst $end
$var wire 1 ! clock $end
$var wire 1 " reset $end
$var wire 1 # saida [1] $end
$var wire 1 $ saida [0] $end

$scope module i1 $end
$var wire 1 % gnd $end
$var wire 1 & vcc $end
$var wire 1 ' unknown $end
$var wire 1 ( devoe $end
$var wire 1 ) devclrn $end
$var wire 1 * devpor $end
$var wire 1 + ww_devoe $end
$var wire 1 , ww_devclrn $end
$var wire 1 - ww_devpor $end
$var wire 1 . ww_reset $end
$var wire 1 / ww_clock $end
$var wire 1 0 ww_saida [1] $end
$var wire 1 1 ww_saida [0] $end
$var wire 1 2 \saida[0]~output_o\ $end
$var wire 1 3 \saida[1]~output_o\ $end
$var wire 1 4 \clock~input_o\ $end
$var wire 1 5 \reset~input_o\ $end
$var wire 1 6 \estado_atual.C~q\ $end
$var wire 1 7 \estado_atual.D~q\ $end
$var wire 1 8 \estado_atual.RESET_estado~q\ $end
$var wire 1 9 \proximo_estado.A~combout\ $end
$var wire 1 : \estado_atual.A~q\ $end
$var wire 1 ; \estado_atual.B~q\ $end
$var wire 1 < \saida~3_combout\ $end
$var wire 1 = \saida~4_combout\ $end
$var wire 1 > \ALT_INV_reset~input_o\ $end
$var wire 1 ? \ALT_INV_estado_atual.RESET_estado~q\ $end
$var wire 1 @ \ALT_INV_estado_atual.C~q\ $end
$var wire 1 A \ALT_INV_estado_atual.D~q\ $end
$var wire 1 B \ALT_INV_estado_atual.B~q\ $end
$upscope $end
$upscope $end
$enddefinitions $end
#0
$dumpvars
0!
1"
0%
1&
x'
1(
1)
1*
1+
1,
1-
1.
0/
02
03
04
15
06
07
08
19
0:
0;
0<
0=
0>
1?
1@
1A
1B
00
01
0#
0$
$end
#25000
1!
1/
14
#50000
0!
0/
04
#60000
0"
0.
05
1>
#75000
1!
1/
14
18
1:
0?
09
#100000
0!
0/
04
#125000
1!
1/
14
0:
1;
0B
1<
12
11
1$
#150000
0!
0/
04
#175000
1!
1/
14
16
0;
1B
0@
1=
0<
02
13
01
10
0$
1#
#200000
0!
0/
04
#225000
1!
1/
14
06
17
0A
1@
19
1<
12
11
1$
#250000
0!
0/
04
#275000
1!
1/
14
07
1:
1A
09
0<
0=
03
02
00
01
0$
0#
#300000
0!
0/
04
#325000
1!
1/
14
0:
1;
0B
1<
12
11
1$
#350000
0!
0/
04
#375000
1!
1/
14
16
0;
1B
0@
1=
0<
02
13
01
10
0$
1#
#400000
0!
0/
04
#425000
1!
1/
14
06
17
0A
1@
19
1<
12
11
1$
#450000
0!
0/
04
#475000
1!
1/
14
07
1:
1A
09
0<
0=
03
02
00
01
0$
0#
#500000
0!
0/
04
#525000
1!
1/
14
0:
1;
0B
1<
12
11
1$
#550000
0!
0/
04
#560000
1"
1.
15
0>
08
0;
1B
1?
19
0<
02
01
0$
#575000
1!
1/
14
#600000
0!
0"
0/
0.
05
04
1>
#625000
1!
1/
14
18
1:
0?
09
#650000
0!
0/
04
#675000
1!
1/
14
0:
1;
0B
1<
12
11
1$
#700000
0!
0/
04
#725000
1!
1/
14
16
0;
1B
0@
1=
0<
02
13
01
10
0$
1#
#750000
0!
0/
04
#775000
1!
1/
14
06
17
0A
1@
19
1<
12
11
1$
#800000
0!
0/
04
#825000
1!
1/
14
07
1:
1A
09
0<
0=
03
02
00
01
0$
0#
#850000
0!
0/
04
#875000
1!
1/
14
0:
1;
0B
1<
12
11
1$
#900000
0!
0/
04
#925000
1!
1/
14
16
0;
1B
0@
1=
0<
02
13
01
10
0$
1#
#950000
0!
0/
04
#975000
1!
1/
14
06
17
0A
1@
19
1<
12
11
1$
