4Bimestre/Trabalho 1/simulation/qsim/trabalho_1.msim.vcd
$comment
	File created using the following command:
		vcd file trabalho_1.msim.vcd -direction
$end
$date
	Sun Nov 19 18:14:06 2023
$end
$version
	ModelSim Version 10.5b
$end
$timescale
	1ps
$end

$scope module maquina_estados_moore_vhd_vec_tst $end
$var wire 1 ! clk $end
$var wire 1 " entrada $end
$var wire 1 # reset $end
$var wire 1 $ saida $end

$scope module i1 $end
$var wire 1 % gnd $end
$var wire 1 & vcc $end
$var wire 1 ' unknown $end
$var wire 1 ( devoe $end
$var wire 1 ) devclrn $end
$var wire 1 * devpor $end
$var wire 1 + ww_devoe $end
$var wire 1 , ww_devclrn $end
$var wire 1 - ww_devpor $end
$var wire 1 . ww_entrada $end
$var wire 1 / ww_clk $end
$var wire 1 0 ww_reset $end
$var wire 1 1 ww_saida $end
$var wire 1 2 \reset~inputclkctrl_INCLK_bus\ [3] $end
$var wire 1 3 \reset~inputclkctrl_INCLK_bus\ [2] $end
$var wire 1 4 \reset~inputclkctrl_INCLK_bus\ [1] $end
$var wire 1 5 \reset~inputclkctrl_INCLK_bus\ [0] $end
$var wire 1 6 \clk~inputclkctrl_INCLK_bus\ [3] $end
$var wire 1 7 \clk~inputclkctrl_INCLK_bus\ [2] $end
$var wire 1 8 \clk~inputclkctrl_INCLK_bus\ [1] $end
$var wire 1 9 \clk~inputclkctrl_INCLK_bus\ [0] $end
$var wire 1 : \saida~output_o\ $end
$var wire 1 ; \clk~input_o\ $end
$var wire 1 < \clk~inputclkctrl_outclk\ $end
$var wire 1 = \entrada~input_o\ $end
$var wire 1 > \estado_atual.A~feeder_combout\ $end
$var wire 1 ? \reset~input_o\ $end
$var wire 1 @ \reset~inputclkctrl_outclk\ $end
$var wire 1 A \estado_atual.A~q\ $end
$var wire 1 B \proximo_estado.C~0_combout\ $end
$var wire 1 C \estado_atual.C~q\ $end
$var wire 1 D \ALT_INV_reset~inputclkctrl_outclk\ $end
$upscope $end
$upscope $end
$enddefinitions $end
#0
$dumpvars
0!
0"
1#
0$
0%
1&
x'
1(
1)
1*
1+
1,
1-
0.
0/
10
01
0:
0;
0<
0=
0>
1?
1@
0A
0B
0C
0D
16
17
18
09
12
13
14
15
$end
#25000
1!
1/
1;
19
1<
#50000
0!
0/
0;
09
0<
#75000
1!
1/
1;
19
1<
#100000
0!
0/
0;
09
0<
#125000
1!
1/
1;
19
1<
#150000
0!
0/
0;
09
0<
#175000
1!
1/
1;
19
1<
#200000
0!
0/
0;
09
0<
#225000
1!
1/
1;
19
1<
#240000
0#
00
0?
05
0@
1D
#250000
0!
0/
0;
09
0<
#270000
1"
1.
1=
1>
#275000
1!
1/
1;
19
1<
1A
1B
#300000
0!
0/
0;
09
0<
#325000
1!
1/
1;
19
1<
1C
1:
11
1$
#350000
0!
0"
0/
0.
0=
0;
09
0>
0B
0<
#375000
1!
1/
1;
19
1<
0A
0C
0:
01
0$
#400000
0!
0/
0;
09
0<
#420000
1"
1.
1=
1>
#425000
1!
1/
1;
19
1<
1A
1B
#450000
0!
0/
0;
09
0<
#460000
0"
0.
0=
0>
0B
#475000
1!
1/
1;
19
1<
0A
#500000
0!
0/
0;
09
0<
#510000
1"
1.
1=
1>
#525000
1!
1/
1;
19
1<
1A
1B
#550000
0!
0/
0;
09
0<
#575000
1!
1/
1;
19
1<
1C
1:
11
1$
#600000
0!
0/
0;
09
0<
#610000
0"
0.
0=
0>
0B
#620000
1"
1.
1=
1>
1B
#625000
1!
1/
1;
19
1<
#650000
0!
0/
0;
09
0<
#670000
1#
10
1?
15
1@
0D
0A
0C
0B
0:
01
0$
#675000
1!
1/
1;
19
1<
#700000
0!
0/
0;
09
0<
#710000
0#
0"
00
0.
0=
0?
05
0>
0@
1D
#725000
1!
1/
1;
19
1<
#750000
0!
0/
0;
09
0<
#770000
1"
1.
1=
1>
#775000
1!
1/
1;
19
1<
1A
1B
#800000
0!
0/
0;
09
0<
#810000
0"
0.
0=
0>
0B
#825000
1!
1/
1;
19
1<
0A
#850000
0!
0/
0;
09
0<
#870000
1"
1.
1=
1>
#875000
1!
1/
1;
19
1<
1A
1B
#900000
0!
0/
0;
09
0<
#925000
1!
1/
1;
19
1<
1C
1:
11
1$
#950000
0!
0/
0;
09
0<
#960000
0"
0.
0=
0>
0B
#970000
1#
10
1?
15
1@
0D
0A
0C
0:
01
0$
#975000
1!
1/
1;
19
1<
