3Bimestre/ultimo trabalho do bimestre/simulation/qsim/memoriaffd.msim.vcd
$comment
	File created using the following command:
		vcd file memoriaffd.msim.vcd -direction
$end
$date
	Sun Nov 05 23:59:03 2023
$end
$version
	ModelSim Version 10.5b
$end
$timescale
	1ps
$end

$scope module final_vhd_vec_tst $end
$var wire 1 ! Clock $end
$var wire 1 " D [7] $end
$var wire 1 # D [6] $end
$var wire 1 $ D [5] $end
$var wire 1 % D [4] $end
$var wire 1 & D [3] $end
$var wire 1 ' D [2] $end
$var wire 1 ( D [1] $end
$var wire 1 ) D [0] $end
$var wire 1 * enderecoX $end
$var wire 1 + enderecoY $end
$var wire 1 , escrever $end
$var wire 1 - ler $end
$var wire 1 . Saida [7] $end
$var wire 1 / Saida [6] $end
$var wire 1 0 Saida [5] $end
$var wire 1 1 Saida [4] $end
$var wire 1 2 Saida [3] $end
$var wire 1 3 Saida [2] $end
$var wire 1 4 Saida [1] $end
$var wire 1 5 Saida [0] $end

$scope module i1 $end
$var wire 1 6 gnd $end
$var wire 1 7 vcc $end
$var wire 1 8 unknown $end
$var wire 1 9 devoe $end
$var wire 1 : devclrn $end
$var wire 1 ; devpor $end
$var wire 1 < ww_devoe $end
$var wire 1 = ww_devclrn $end
$var wire 1 > ww_devpor $end
$var wire 1 ? ww_D [7] $end
$var wire 1 @ ww_D [6] $end
$var wire 1 A ww_D [5] $end
$var wire 1 B ww_D [4] $end
$var wire 1 C ww_D [3] $end
$var wire 1 D ww_D [2] $end
$var wire 1 E ww_D [1] $end
$var wire 1 F ww_D [0] $end
$var wire 1 G ww_Clock $end
$var wire 1 H ww_enderecoX $end
$var wire 1 I ww_enderecoY $end
$var wire 1 J ww_escrever $end
$var wire 1 K ww_ler $end
$var wire 1 L ww_Saida [7] $end
$var wire 1 M ww_Saida [6] $end
$var wire 1 N ww_Saida [5] $end
$var wire 1 O ww_Saida [4] $end
$var wire 1 P ww_Saida [3] $end
$var wire 1 Q ww_Saida [2] $end
$var wire 1 R ww_Saida [1] $end
$var wire 1 S ww_Saida [0] $end
$var wire 1 T \Saida[0]~output_o\ $end
$var wire 1 U \Saida[1]~output_o\ $end
$var wire 1 V \Saida[2]~output_o\ $end
$var wire 1 W \Saida[3]~output_o\ $end
$var wire 1 X \Saida[4]~output_o\ $end
$var wire 1 Y \Saida[5]~output_o\ $end
$var wire 1 Z \Saida[6]~output_o\ $end
$var wire 1 [ \Saida[7]~output_o\ $end
$var wire 1 \ \ler~input_o\ $end
$var wire 1 ] \enderecoY~input_o\ $end
$var wire 1 ^ \enderecoX~input_o\ $end
$var wire 1 _ \D[0]~input_o\ $end
$var wire 1 ` \escrever~input_o\ $end
$var wire 1 a \Clock~input_o\ $end
$var wire 1 b \flipflop01|cond~combout\ $end
$var wire 1 c \flipflop01|flipflop_0|sq~0_combout\ $end
$var wire 1 d \flipflop10|cond~combout\ $end
$var wire 1 e \flipflop10|flipflop_0|sq~0_combout\ $end
$var wire 1 f \Saida~0_combout\ $end
$var wire 1 g \flipflop00|cond~combout\ $end
$var wire 1 h \flipflop00|flipflop_0|sq~0_combout\ $end
$var wire 1 i \flipflop11|cond~combout\ $end
$var wire 1 j \flipflop11|flipflop_0|sq~0_combout\ $end
$var wire 1 k \Saida~1_combout\ $end
$var wire 1 l \Saida~2_combout\ $end
$var wire 1 m \D[1]~input_o\ $end
$var wire 1 n \flipflop10|flipflop_1|sq~0_combout\ $end
$var wire 1 o \flipflop01|flipflop_1|sq~0_combout\ $end
$var wire 1 p \Saida~3_combout\ $end
$var wire 1 q \flipflop00|flipflop_1|sq~0_combout\ $end
$var wire 1 r \flipflop11|flipflop_1|sq~0_combout\ $end
$var wire 1 s \Saida~4_combout\ $end
$var wire 1 t \Saida~5_combout\ $end
$var wire 1 u \D[2]~input_o\ $end
$var wire 1 v \flipflop10|flipflop_2|sq~0_combout\ $end
$var wire 1 w \flipflop01|flipflop_2|sq~0_combout\ $end
$var wire 1 x \Saida~6_combout\ $end
$var wire 1 y \flipflop00|flipflop_2|sq~0_combout\ $end
$var wire 1 z \flipflop11|flipflop_2|sq~0_combout\ $end
$var wire 1 { \Saida~7_combout\ $end
$var wire 1 | \Saida~8_combout\ $end
$var wire 1 } \D[3]~input_o\ $end
$var wire 1 ~ \flipflop10|flipflop_3|sq~0_combout\ $end
$var wire 1 !! \flipflop01|flipflop_3|sq~0_combout\ $end
$var wire 1 "! \Saida~9_combout\ $end
$var wire 1 #! \flipflop00|flipflop_3|sq~0_combout\ $end
$var wire 1 $! \flipflop11|flipflop_3|sq~0_combout\ $end
$var wire 1 %! \Saida~10_combout\ $end
$var wire 1 &! \Saida~11_combout\ $end
$var wire 1 '! \D[4]~input_o\ $end
$var wire 1 (! \flipflop10|flipflop_4|sq~0_combout\ $end
$var wire 1 )! \flipflop01|flipflop_4|sq~0_combout\ $end
$var wire 1 *! \Saida~12_combout\ $end
$var wire 1 +! \flipflop00|flipflop_4|sq~0_combout\ $end
$var wire 1 ,! \flipflop11|flipflop_4|sq~0_combout\ $end
$var wire 1 -! \Saida~13_combout\ $end
$var wire 1 .! \Saida~14_combout\ $end
$var wire 1 /! \D[5]~input_o\ $end
$var wire 1 0! \flipflop10|flipflop_5|sq~0_combout\ $end
$var wire 1 1! \flipflop01|flipflop_5|sq~0_combout\ $end
$var wire 1 2! \Saida~15_combout\ $end
$var wire 1 3! \flipflop00|flipflop_5|sq~0_combout\ $end
$var wire 1 4! \flipflop11|flipflop_5|sq~0_combout\ $end
$var wire 1 5! \Saida~16_combout\ $end
$var wire 1 6! \Saida~17_combout\ $end
$var wire 1 7! \D[6]~input_o\ $end
$var wire 1 8! \flipflop10|flipflop_6|sq~0_combout\ $end
$var wire 1 9! \flipflop01|flipflop_6|sq~0_combout\ $end
$var wire 1 :! \Saida~18_combout\ $end
$var wire 1 ;! \flipflop00|flipflop_6|sq~0_combout\ $end
$var wire 1 <! \flipflop11|flipflop_6|sq~0_combout\ $end
$var wire 1 =! \Saida~19_combout\ $end
$var wire 1 >! \Saida~20_combout\ $end
$var wire 1 ?! \D[7]~input_o\ $end
$var wire 1 @! \flipflop10|flipflop_7|sq~0_combout\ $end
$var wire 1 A! \flipflop01|flipflop_7|sq~0_combout\ $end
$var wire 1 B! \Saida~21_combout\ $end
$var wire 1 C! \flipflop00|flipflop_7|sq~0_combout\ $end
$var wire 1 D! \flipflop11|flipflop_7|sq~0_combout\ $end
$var wire 1 E! \Saida~22_combout\ $end
$var wire 1 F! \Saida~23_combout\ $end
$upscope $end
$upscope $end
$enddefinitions $end
#0
$dumpvars
0!
0*
0+
0,
0-
06
17
x8
19
1:
1;
1<
1=
1>
0G
0H
0I
0J
0K
0T
0U
0V
0W
0X
0Y
0Z
0[
0\
0]
0^
0_
0`
0a
0b
xc
0d
xe
0f
0g
xh
0i
xj
xk
0l
0m
xn
xo
0p
xq
xr
xs
0t
0u
xv
xw
0x
xy
xz
x{
0|
0}
x~
x!!
0"!
x#!
x$!
x%!
0&!
0'!
x(!
x)!
0*!
x+!
x,!
x-!
0.!
0/!
x0!
x1!
02!
x3!
x4!
x5!
06!
07!
x8!
x9!
0:!
x;!
x<!
x=!
0>!
0?!
x@!
xA!
0B!
xC!
xD!
xE!
0F!
0"
0#
0$
0%
0&
0'
0(
0)
0.
0/
00
01
02
03
04
05
0?
0@
0A
0B
0C
0D
0E
0F
0L
0M
0N
0O
0P
0Q
0R
0S
$end
#673
1"
1#
1$
1%
1&
1'
1(
1)
1F
1E
1D
1C
1B
1A
1@
1?
1?!
17!
1/!
1'!
1}
1u
1m
1_
#4360
1,
1J
1`
#5000
1!
1G
1a
1g
0h
0q
0y
0#!
0+!
03!
0;!
0C!
1E!
1=!
15!
1-!
1%!
1{
1s
1k
#9899
0,
0J
0`
0g
#10000
0!
0G
0a
#13547
0"
0#
0$
0%
0&
0'
0(
0)
0F
0E
0D
0C
0B
0A
0@
0?
0?!
07!
0/!
0'!
0}
0u
0m
0_
#14388
1-
1K
1\
1l
1t
1|
1&!
1.!
16!
1>!
1F!
1[
1Z
1Y
1X
1W
1V
1U
1T
1L
1M
1N
1O
1P
1Q
1R
1S
15
14
13
12
11
10
1/
1.
#15000
1!
1G
1a
#20000
0!
0G
0a
#22889
1&
1'
1(
1)
1F
1E
1D
1C
1}
1u
1m
1_
#22926
0-
0K
0\
0l
0t
0|
0&!
0.!
06!
0>!
0F!
0[
0Z
0Y
0X
0W
0V
0U
0T
0L
0M
0N
0O
0P
0Q
0R
0S
05
04
03
02
01
00
0/
0.
#23736
1+
1I
1]
xf
0k
xp
0s
xx
0{
x"!
0%!
x*!
0-!
x2!
05!
x:!
0=!
xB!
0E!
#24251
1,
1J
1`
#25000
1!
1G
1a
1b
0c
0o
0w
0!!
1)!
11!
19!
1A!
0B!
0:!
02!
0*!
1"!
1x
1p
1f
#30000
0!
0G
0a
0b
#32936
0,
0J
0`
#33745
0&
0'
0(
0)
0F
0E
0D
0C
0}
0u
0m
0_
#33856
1-
1K
1\
1l
1t
1|
1&!
1W
1V
1U
1T
1P
1Q
1R
1S
15
14
13
12
#35000
1!
1G
1a
#40000
0!
0G
0a
#42614
0+
0I
0]
0f
1k
0p
1s
0x
1{
0"!
1%!
1-!
15!
1=!
1E!
1F!
1>!
16!
1.!
1X
1Y
1Z
1[
1O
1N
1M
1L
11
10
1/
1.
#45000
1!
1G
1a
#50000
0!
0G
0a
#50526
0-
0K
0\
0l
0t
0|
0&!
0.!
06!
0>!
0F!
0[
0Z
0Y
0X
0W
0V
0U
0T
0L
0M
0N
0O
0P
0Q
0R
0S
05
04
03
02
01
00
0/
0.
#51446
1*
1H
1^
xf
0k
xp
0s
xx
0{
x"!
0%!
x*!
0-!
x2!
05!
x:!
0=!
xB!
0E!
#52145
1,
1J
1`
#52513
1"
1#
1$
1%
1B
1A
1@
1?
1?!
17!
1/!
1'!
#55000
1!
1G
1a
1d
1e
1n
1v
1~
0(!
00!
08!
0@!
1B!
1:!
12!
1*!
0"!
0x
0p
0f
#60000
0!
0G
0a
0d
#61272
0"
0#
0$
0%
0B
0A
0@
0?
0?!
07!
0/!
0'!
#62376
0,
0J
0`
#64032
1-
1K
1\
1.!
16!
1>!
1F!
1[
1Z
1Y
1X
1L
1M
1N
1O
11
10
1/
1.
#65000
1!
1G
1a
#70000
0!
0G
0a
#71944
0*
0H
0^
1k
1s
1{
1%!
0*!
1-!
02!
15!
0:!
1=!
0B!
1E!
1&!
1|
1t
1l
1T
1U
1V
1W
1S
1R
1Q
1P
15
14
13
12
#72864
0-
0K
0\
0l
0t
0|
0&!
0.!
06!
0>!
0F!
0[
0Z
0Y
0X
0W
0V
0U
0T
0L
0M
0N
0O
0P
0Q
0R
0S
05
04
03
02
01
00
0/
0.
#73048
1"
1#
1$
1%
1&
1'
1(
1)
1F
1E
1D
1C
1B
1A
1@
1?
1?!
17!
1/!
1'!
1}
1u
1m
1_
#74262
1*
1+
1H
1I
1]
1^
xk
xs
x{
x%!
x-!
x5!
x=!
xE!
#74593
1,
1J
1`
#75000
1!
1G
1a
1i
0j
0r
0z
0$!
0,!
04!
0<!
0D!
1E!
1=!
15!
1-!
1%!
1{
1s
1k
#80000
0!
0G
0a
0i
#80665
0,
0J
0`
#81401
0*
0+
0H
0I
0]
0^
#81843
0"
0#
0$
0%
0&
0'
0(
0)
0F
0E
0D
0C
0B
0A
0@
0?
0?!
07!
0/!
0'!
0}
0u
0m
0_
#82873
1*
1+
1H
1I
1]
1^
#84235
1-
1K
1\
1l
1t
1|
1&!
1.!
16!
1>!
1F!
1[
1Z
1Y
1X
1W
1V
1U
1T
1L
1M
1N
1O
1P
1Q
1R
1S
15
14
13
12
11
10
1/
1.
#85000
1!
1G
1a
#90000
0!
0G
0a
#90454
0*
0+
0H
0I
0]
0^
#95000
1!
1G
1a
#97078
0-
0K
0\
0l
0t
0|
0&!
0.!
06!
0>!
0F!
0[
0Z
0Y
0X
0W
0V
0U
0T
0L
0M
0N
0O
0P
0Q
0R
0S
05
04
03
02
01
00
0/
0.
#100000
0!
0G
0a
#105000
1!
1G
1a
#110000
0!
0G
0a
#115000
1!
1G
1a
#120000
0!
0G
0a
#125000
1!
1G
1a
#130000
0!
0G
0a
#135000
1!
1G
1a
#140000
0!
0G
0a
#145000
1!
1G
1a
#150000
0!
0G
0a
#155000
1!
1G
1a
#160000
0!
0G
0a
#165000
1!
1G
1a
#170000
0!
0G
0a
#175000
1!
1G
1a
#180000
0!
0G
0a
#185000
1!
1G
1a
#190000
0!
0G
0a
#195000
1!
1G
1a
#200000
0!
0G
0a
#205000
1!
1G
1a
#210000
0!
0G
0a
#215000
1!
1G
1a
#220000
0!
0G
0a
#225000
1!
1G
1a
#230000
0!
0G
0a
#235000
1!
1G
1a
#240000
0!
0G
0a
#245000
1!
1G
1a
#250000
0!
0G
0a
#255000
1!
1G
1a
#260000
0!
0G
0a
#265000
1!
1G
1a
#270000
0!
0G
0a
#275000
1!
1G
1a
#280000
0!
0G
0a
#285000
1!
1G
1a
#290000
0!
0G
0a
#295000
1!
1G
1a
#300000
0!
0G
0a
#305000
1!
1G
1a
#310000
0!
0G
0a
#315000
1!
1G
1a
#320000
0!
0G
0a
#325000
1!
1G
1a
#330000
0!
0G
0a
#335000
1!
1G
1a
#340000
0!
0G
0a
#345000
1!
1G
1a
#350000
0!
0G
0a
#355000
1!
1G
1a
#360000
0!
0G
0a
#365000
1!
1G
1a
#370000
0!
0G
0a
#375000
1!
1G
1a
#380000
0!
0G
0a
#385000
1!
1G
1a
#390000
0!
0G
0a
#395000
1!
1G
1a
#400000
0!
0G
0a
#405000
1!
1G
1a
#410000
0!
0G
0a
#415000
1!
1G
1a
#420000
0!
0G
0a
#425000
1!
1G
1a
#430000
0!
0G
0a
#435000
1!
1G
1a
#440000
0!
0G
0a
#445000
1!
1G
1a
#450000
0!
0G
0a
#455000
1!
1G
1a
#460000
0!
0G
0a
#465000
1!
1G
1a
#470000
0!
0G
0a
#475000
1!
1G
1a
#480000
0!
0G
0a
#485000
1!
1G
1a
#490000
0!
0G
0a
#495000
1!
1G
1a
#500000
0!
0G
0a
#505000
1!
1G
1a
#510000
0!
0G
0a
#515000
1!
1G
1a
#520000
0!
0G
0a
#525000
1!
1G
1a
#530000
0!
0G
0a
#535000
1!
1G
1a
#540000
0!
0G
0a
#545000
1!
1G
1a
#550000
0!
0G
0a
#555000
1!
1G
1a
#560000
0!
0G
0a
#565000
1!
1G
1a
#570000
0!
0G
0a
#575000
1!
1G
1a
#580000
0!
0G
0a
#585000
1!
1G
1a
#590000
0!
0G
0a
#595000
1!
1G
1a
#600000
0!
0G
0a
#605000
1!
1G
1a
#610000
0!
0G
0a
#615000
1!
1G
1a
#620000
0!
0G
0a
#625000
1!
1G
1a
#630000
0!
0G
0a
#635000
1!
1G
1a
#640000
0!
0G
0a
#645000
1!
1G
1a
#650000
0!
0G
0a
#655000
1!
1G
1a
#660000
0!
0G
0a
#665000
1!
1G
1a
#670000
0!
0G
0a
#675000
1!
1G
1a
#680000
0!
0G
0a
#685000
1!
1G
1a
#690000
0!
0G
0a
#695000
1!
1G
1a
#700000
0!
0G
0a
#705000
1!
1G
1a
#710000
0!
0G
0a
#715000
1!
1G
1a
#720000
0!
0G
0a
#725000
1!
1G
1a
#730000
0!
0G
0a
#735000
1!
1G
1a
#740000
0!
0G
0a
#745000
1!
1G
1a
#750000
0!
0G
0a
#755000
1!
1G
1a
#760000
0!
0G
0a
#765000
1!
1G
1a
#770000
0!
0G
0a
#775000
1!
1G
1a
#780000
0!
0G
0a
#785000
1!
1G
1a
#790000
0!
0G
0a
#795000
1!
1G
1a
#800000
0!
0G
0a
#805000
1!
1G
1a
#810000
0!
0G
0a
#815000
1!
1G
1a
#820000
0!
0G
0a
#825000
1!
1G
1a
#830000
0!
0G
0a
#835000
1!
1G
1a
#840000
0!
0G
0a
#845000
1!
1G
1a
#850000
0!
0G
0a
#855000
1!
1G
1a
#860000
0!
0G
0a
#865000
1!
1G
1a
#870000
0!
0G
0a
#875000
1!
1G
1a
#880000
0!
0G
0a
#885000
1!
1G
1a
#890000
0!
0G
0a
#895000
1!
1G
1a
#900000
0!
0G
0a
#905000
1!
1G
1a
#910000
0!
0G
0a
#915000
1!
1G
1a
#920000
0!
0G
0a
#925000
1!
1G
1a
#930000
0!
0G
0a
#935000
1!
1G
1a
#940000
0!
0G
0a
#945000
1!
1G
1a
#950000
0!
0G
0a
#955000
1!
1G
1a
#960000
0!
0G
0a
#965000
1!
1G
1a
#970000
0!
0G
0a
#975000
1!
1G
1a
#980000
0!
0G
0a
#985000
1!
1G
1a
#990000
0!
0G
0a
#995000
1!
1G
1a
