3Bimestre/ultimo trabalho do bimestre/simulation/qsim/memoriaffd.msim.vcd
$comment
	File created using the following command:
		vcd file memoriaffd.msim.vcd -direction
$end
$date
	Thu Nov 02 23:14:39 2023
$end
$version
	ModelSim Version 10.5b
$end
$timescale
	1ps
$end

$scope module final_vhd_vec_tst $end
$var wire 1 ! Clock $end
$var wire 1 " D [7] $end
$var wire 1 # D [6] $end
$var wire 1 $ D [5] $end
$var wire 1 % D [4] $end
$var wire 1 & D [3] $end
$var wire 1 ' D [2] $end
$var wire 1 ( D [1] $end
$var wire 1 ) D [0] $end
$var wire 1 * enderecoX $end
$var wire 1 + enderecoY $end
$var wire 1 , escrever $end
$var wire 1 - ler $end
$var wire 1 . Saida [7] $end
$var wire 1 / Saida [6] $end
$var wire 1 0 Saida [5] $end
$var wire 1 1 Saida [4] $end
$var wire 1 2 Saida [3] $end
$var wire 1 3 Saida [2] $end
$var wire 1 4 Saida [1] $end
$var wire 1 5 Saida [0] $end

$scope module i1 $end
$var wire 1 6 gnd $end
$var wire 1 7 vcc $end
$var wire 1 8 unknown $end
$var wire 1 9 devoe $end
$var wire 1 : devclrn $end
$var wire 1 ; devpor $end
$var wire 1 < ww_devoe $end
$var wire 1 = ww_devclrn $end
$var wire 1 > ww_devpor $end
$var wire 1 ? ww_D [7] $end
$var wire 1 @ ww_D [6] $end
$var wire 1 A ww_D [5] $end
$var wire 1 B ww_D [4] $end
$var wire 1 C ww_D [3] $end
$var wire 1 D ww_D [2] $end
$var wire 1 E ww_D [1] $end
$var wire 1 F ww_D [0] $end
$var wire 1 G ww_Clock $end
$var wire 1 H ww_enderecoX $end
$var wire 1 I ww_enderecoY $end
$var wire 1 J ww_escrever $end
$var wire 1 K ww_ler $end
$var wire 1 L ww_Saida [7] $end
$var wire 1 M ww_Saida [6] $end
$var wire 1 N ww_Saida [5] $end
$var wire 1 O ww_Saida [4] $end
$var wire 1 P ww_Saida [3] $end
$var wire 1 Q ww_Saida [2] $end
$var wire 1 R ww_Saida [1] $end
$var wire 1 S ww_Saida [0] $end
$var wire 1 T \Saida[0]~output_o\ $end
$var wire 1 U \Saida[1]~output_o\ $end
$var wire 1 V \Saida[2]~output_o\ $end
$var wire 1 W \Saida[3]~output_o\ $end
$var wire 1 X \Saida[4]~output_o\ $end
$var wire 1 Y \Saida[5]~output_o\ $end
$var wire 1 Z \Saida[6]~output_o\ $end
$var wire 1 [ \Saida[7]~output_o\ $end
$var wire 1 \ \ler~input_o\ $end
$var wire 1 ] \enderecoY~input_o\ $end
$var wire 1 ^ \enderecoX~input_o\ $end
$var wire 1 _ \D[0]~input_o\ $end
$var wire 1 ` \escrever~input_o\ $end
$var wire 1 a \Clock~input_o\ $end
$var wire 1 b \flipflop01|cond~combout\ $end
$var wire 1 c \flipflop01|flipflop_0|sq~0_combout\ $end
$var wire 1 d \flipflop10|cond~combout\ $end
$var wire 1 e \flipflop10|flipflop_0|sq~0_combout\ $end
$var wire 1 f \Saida~0_combout\ $end
$var wire 1 g \flipflop00|cond~combout\ $end
$var wire 1 h \flipflop00|flipflop_0|sq~0_combout\ $end
$var wire 1 i \flipflop11|cond~combout\ $end
$var wire 1 j \flipflop11|flipflop_0|sq~0_combout\ $end
$var wire 1 k \Saida~1_combout\ $end
$var wire 1 l \Saida~2_combout\ $end
$var wire 1 m \D[1]~input_o\ $end
$var wire 1 n \flipflop10|flipflop_1|sq~0_combout\ $end
$var wire 1 o \flipflop01|flipflop_1|sq~0_combout\ $end
$var wire 1 p \Saida~3_combout\ $end
$var wire 1 q \flipflop00|flipflop_1|sq~0_combout\ $end
$var wire 1 r \flipflop11|flipflop_1|sq~0_combout\ $end
$var wire 1 s \Saida~4_combout\ $end
$var wire 1 t \Saida~5_combout\ $end
$var wire 1 u \D[2]~input_o\ $end
$var wire 1 v \flipflop10|flipflop_2|sq~0_combout\ $end
$var wire 1 w \flipflop01|flipflop_2|sq~0_combout\ $end
$var wire 1 x \Saida~6_combout\ $end
$var wire 1 y \flipflop00|flipflop_2|sq~0_combout\ $end
$var wire 1 z \flipflop11|flipflop_2|sq~0_combout\ $end
$var wire 1 { \Saida~7_combout\ $end
$var wire 1 | \Saida~8_combout\ $end
$var wire 1 } \D[3]~input_o\ $end
$var wire 1 ~ \flipflop10|flipflop_3|sq~0_combout\ $end
$var wire 1 !! \flipflop01|flipflop_3|sq~0_combout\ $end
$var wire 1 "! \Saida~9_combout\ $end
$var wire 1 #! \flipflop00|flipflop_3|sq~0_combout\ $end
$var wire 1 $! \flipflop11|flipflop_3|sq~0_combout\ $end
$var wire 1 %! \Saida~10_combout\ $end
$var wire 1 &! \Saida~11_combout\ $end
$var wire 1 '! \D[4]~input_o\ $end
$var wire 1 (! \flipflop10|flipflop_4|sq~0_combout\ $end
$var wire 1 )! \flipflop01|flipflop_4|sq~0_combout\ $end
$var wire 1 *! \Saida~12_combout\ $end
$var wire 1 +! \flipflop00|flipflop_4|sq~0_combout\ $end
$var wire 1 ,! \flipflop11|flipflop_4|sq~0_combout\ $end
$var wire 1 -! \Saida~13_combout\ $end
$var wire 1 .! \Saida~14_combout\ $end
$var wire 1 /! \D[5]~input_o\ $end
$var wire 1 0! \flipflop10|flipflop_5|sq~0_combout\ $end
$var wire 1 1! \flipflop01|flipflop_5|sq~0_combout\ $end
$var wire 1 2! \Saida~15_combout\ $end
$var wire 1 3! \flipflop00|flipflop_5|sq~0_combout\ $end
$var wire 1 4! \flipflop11|flipflop_5|sq~0_combout\ $end
$var wire 1 5! \Saida~16_combout\ $end
$var wire 1 6! \Saida~17_combout\ $end
$var wire 1 7! \D[6]~input_o\ $end
$var wire 1 8! \flipflop10|flipflop_6|sq~0_combout\ $end
$var wire 1 9! \flipflop01|flipflop_6|sq~0_combout\ $end
$var wire 1 :! \Saida~18_combout\ $end
$var wire 1 ;! \flipflop00|flipflop_6|sq~0_combout\ $end
$var wire 1 <! \flipflop11|flipflop_6|sq~0_combout\ $end
$var wire 1 =! \Saida~19_combout\ $end
$var wire 1 >! \Saida~20_combout\ $end
$var wire 1 ?! \D[7]~input_o\ $end
$var wire 1 @! \flipflop10|flipflop_7|sq~0_combout\ $end
$var wire 1 A! \flipflop01|flipflop_7|sq~0_combout\ $end
$var wire 1 B! \Saida~21_combout\ $end
$var wire 1 C! \flipflop00|flipflop_7|sq~0_combout\ $end
$var wire 1 D! \flipflop11|flipflop_7|sq~0_combout\ $end
$var wire 1 E! \Saida~22_combout\ $end
$var wire 1 F! \Saida~23_combout\ $end
$upscope $end
$upscope $end
$enddefinitions $end
#0
$dumpvars
0!
1*
0+
0,
0-
06
17
x8
19
1:
1;
1<
1=
1>
0G
1H
0I
0J
0K
0T
0U
0V
0W
0X
0Y
0Z
0[
0\
0]
1^
0_
0`
0a
0b
xc
0d
xe
xf
0g
xh
0i
xj
0k
0l
0m
xn
xo
xp
xq
xr
0s
0t
0u
xv
xw
xx
xy
xz
0{
0|
0}
x~
x!!
x"!
x#!
x$!
0%!
0&!
0'!
x(!
x)!
x*!
x+!
x,!
0-!
0.!
0/!
x0!
x1!
x2!
x3!
x4!
05!
06!
07!
x8!
x9!
x:!
x;!
x<!
0=!
0>!
0?!
x@!
xA!
xB!
xC!
xD!
0E!
0F!
0"
0#
0$
0%
0&
0'
0(
0)
0?
0@
0A
0B
0C
0D
0E
0F
0L
0M
0N
0O
0P
0Q
0R
0S
0.
0/
00
01
02
03
04
05
$end
#5000
1!
1,
1G
1J
1`
1a
1d
1e
1n
1v
1~
1(!
10!
18!
1@!
0B!
0:!
02!
0*!
0"!
0x
0p
0f
#10000
0!
0,
0*
0G
0J
0H
0^
0`
0a
0d
xk
xs
x{
x%!
x-!
x5!
x=!
xE!
#15000
1!
1,
1G
1J
1`
1a
1g
1h
1q
1y
1#!
1+!
13!
1;!
1C!
0E!
0=!
05!
0-!
0%!
0{
0s
0k
#20000
0!
0,
1*
1+
0G
0J
1H
1I
1]
1^
0`
0a
0g
xk
xs
x{
x%!
x-!
x5!
x=!
xE!
#25000
1!
1,
1G
1J
1`
1a
1i
1j
1r
1z
1$!
1,!
14!
1<!
1D!
0E!
0=!
05!
0-!
0%!
0{
0s
0k
#30000
0!
0,
0*
0G
0J
0H
0^
0`
0a
xf
0i
xp
xx
x"!
x*!
x2!
x:!
xB!
#35000
1!
1,
1G
1J
1`
1a
1b
1c
1o
1w
1!!
1)!
11!
19!
1A!
0B!
0:!
02!
0*!
0"!
0x
0p
0f
#40000
0!
0,
1*
0+
1)
1-
0G
0J
1H
0I
1F
1K
1\
1_
0]
1^
0`
0a
0b
0c
#45000
1!
1,
1G
1J
1`
1a
1d
0e
1f
#50000
0!
0,
0*
0G
0J
0H
0^
0`
0a
1l
0d
0f
0l
1T
1S
0T
15
0S
05
#55000
1!
1,
1G
1J
1`
1a
1g
0h
1k
#60000
0!
0,
1*
1+
0G
0J
1H
1I
1]
1^
0`
0a
1l
0g
0k
0l
1T
1S
0T
15
0S
05
#65000
1!
1,
1G
1J
1`
1a
1i
0j
1k
#70000
0!
0,
0*
0G
0J
0H
0^
0`
0a
1l
1f
0i
0k
1T
1S
15
#75000
1!
1,
1G
1J
1`
1a
1b
0l
0T
0S
05
#80000
0!
0,
1*
0+
0)
0-
1(
0G
0J
1H
0I
0F
1E
0K
0\
1m
0_
0]
1^
0`
0a
0b
1c
0o
#85000
1!
1,
1G
1J
1`
1a
1d
1e
0n
1p
0f
#90000
0!
0,
0*
0G
0J
0H
0^
0`
0a
0d
1k
0p
#95000
1!
1,
1G
1J
1`
1a
1g
1h
0q
1s
0k
#100000
0!
0,
1*
1+
0G
0J
1H
1I
1]
1^
0`
0a
0g
1k
0s
#105000
1!
1,
1G
1J
1`
1a
1i
1j
0r
1s
0k
#110000
0!
0,
0*
0G
0J
0H
0^
0`
0a
0i
1p
0s
#115000
1!
1,
1G
1J
1`
1a
1b
#120000
0!
0,
1*
0+
1)
1-
0G
0J
1H
0I
1F
1K
1\
1_
0]
1^
0`
0a
0b
0c
1t
1U
1R
14
#125000
1!
1,
1G
1J
1`
1a
1d
0t
0e
1f
0U
0R
04
#130000
0!
0,
0*
0G
0J
0H
0^
0`
0a
1l
1t
0d
0f
0p
1s
0l
1U
1T
1R
1S
0T
15
14
0S
05
#135000
1!
1,
1G
1J
1`
1a
1g
0t
0h
1k
0U
0R
04
#140000
0!
0,
1*
1+
0G
0J
1H
1I
1]
1^
0`
0a
1l
1t
0g
0k
0l
1U
1T
1R
1S
0T
15
14
0S
05
#145000
1!
1,
1G
1J
1`
1a
1i
0t
0j
1k
0U
0R
04
#150000
0!
0,
0*
0G
0J
0H
0^
0`
0a
1l
1t
1f
0i
0k
1p
0s
1U
1T
1R
1S
15
14
#155000
1!
1,
1G
1J
1`
1a
1b
0l
0t
0U
0T
0R
0S
05
04
#160000
0!
0,
1*
0+
0)
0-
0(
1'
0G
0J
1H
0I
0F
0E
1D
0K
0\
1u
0m
0_
0]
1^
0`
0a
0b
1c
1o
0w
#165000
1!
1,
1G
1J
1`
1a
1d
1e
1n
0v
1x
0p
0f
#170000
0!
0,
0*
0G
0J
0H
0^
0`
0a
0d
1k
1s
0x
#175000
1!
1,
1G
1J
1`
1a
1g
1h
1q
0y
1{
0s
0k
#180000
0!
0,
1*
1+
0G
0J
1H
1I
1]
1^
0`
0a
0g
1k
1s
0{
#185000
1!
1,
1G
1J
1`
1a
1i
1j
1r
0z
1{
0s
0k
#190000
0!
0,
0*
0G
0J
0H
0^
0`
0a
0i
1x
0{
#195000
1!
1,
1G
1J
1`
1a
1b
#200000
0!
0,
1*
0+
1)
1-
0G
0J
1H
0I
1F
1K
1\
1_
0]
1^
0`
0a
0b
0c
1|
1V
1Q
13
#205000
1!
1,
1G
1J
1`
1a
1d
0|
0e
1f
0V
0Q
03
#210000
0!
0,
0*
0G
0J
0H
0^
0`
0a
1l
1|
0d
0f
0x
1{
0l
1V
1T
1Q
1S
0T
15
13
0S
05
#215000
1!
1,
1G
1J
1`
1a
1g
0|
0h
1k
0V
0Q
03
#220000
0!
0,
1*
1+
0G
0J
1H
1I
1]
1^
0`
0a
1l
1|
0g
0k
0l
1V
1T
1Q
1S
0T
15
13
0S
05
#225000
1!
1,
1G
1J
1`
1a
1i
0|
0j
1k
0V
0Q
03
#230000
0!
0,
0*
0G
0J
0H
0^
0`
0a
1l
1|
1f
0i
0k
1x
0{
1V
1T
1Q
1S
15
13
#235000
1!
1,
1G
1J
1`
1a
1b
0l
0|
0V
0T
0Q
0S
05
03
#240000
0!
0,
1*
0+
0)
0-
1(
0G
0J
1H
0I
0F
1E
0K
0\
1m
0_
0]
1^
0`
0a
0b
1c
0o
#245000
1!
1,
1G
1J
1`
1a
1d
1e
0n
1p
0f
#250000
0!
0,
0*
0G
0J
0H
0^
0`
0a
0d
1k
0p
0x
1{
#255000
1!
1,
1G
1J
1`
1a
1g
1h
0q
1s
0k
#260000
0!
0,
1*
1+
0G
0J
1H
1I
1]
1^
0`
0a
0g
1k
0s
#265000
1!
1,
1G
1J
1`
1a
1i
1j
0r
1s
0k
#270000
0!
0,
0*
0G
0J
0H
0^
0`
0a
0i
1p
0s
1x
0{
#275000
1!
1,
1G
1J
1`
1a
1b
#280000
0!
0,
1*
0+
1)
1-
0G
0J
1H
0I
1F
1K
1\
1_
0]
1^
0`
0a
0b
0c
1t
1|
1V
1U
1Q
1R
14
13
#285000
1!
1,
1G
1J
1`
1a
1d
0t
0|
0e
1f
0V
0U
0Q
0R
04
03
#290000
0!
0,
0*
0G
0J
0H
0^
0`
0a
1l
1t
1|
0d
0f
0p
1s
0x
1{
0l
1V
1U
1T
1Q
1R
1S
0T
15
14
13
0S
05
#295000
1!
1,
1G
1J
1`
1a
1g
0t
0|
0h
1k
0V
0U
0Q
0R
04
03
#300000
0!
0,
1*
1+
0G
0J
1H
1I
1]
1^
0`
0a
1l
1t
1|
0g
0k
0l
1V
1U
1T
1Q
1R
1S
0T
15
14
13
0S
05
#305000
1!
1,
1G
1J
1`
1a
1i
0t
0|
0j
1k
0V
0U
0Q
0R
04
03
#310000
0!
0,
0*
0G
0J
0H
0^
0`
0a
1l
1t
1|
1f
0i
0k
1p
0s
1x
0{
1V
1U
1T
1Q
1R
1S
15
14
13
#315000
1!
1,
1G
1J
1`
1a
1b
0l
0t
0|
0V
0U
0T
0Q
0R
0S
05
04
03
#320000
0!
0,
1*
0+
0)
0-
0(
0'
1&
0G
0J
1H
0I
0F
0E
0D
1C
0K
0\
1}
0u
0m
0_
0]
1^
0`
0a
0b
1c
1o
1w
0!!
#325000
1!
1,
1G
1J
1`
1a
1d
1e
1n
1v
0~
1"!
0x
0p
0f
#330000
0!
0,
0*
0G
0J
0H
0^
0`
0a
0d
1k
1s
1{
0"!
#335000
1!
1,
1G
1J
1`
1a
1g
1h
1q
1y
0#!
1%!
0{
0s
0k
#340000
0!
0,
1*
1+
0G
0J
1H
1I
1]
1^
0`
0a
0g
1k
1s
1{
0%!
#345000
1!
1,
1G
1J
1`
1a
1i
1j
1r
1z
0$!
1%!
0{
0s
0k
#350000
0!
0,
0*
0G
0J
0H
0^
0`
0a
0i
1"!
0%!
#355000
1!
1,
1G
1J
1`
1a
1b
#360000
0!
0,
1*
0+
1)
1-
0G
0J
1H
0I
1F
1K
1\
1_
0]
1^
0`
0a
0b
0c
1&!
1W
1P
12
#365000
1!
1,
1G
1J
1`
1a
1d
0&!
0e
1f
0W
0P
02
#370000
0!
0,
0*
0G
0J
0H
0^
0`
0a
1l
1&!
0d
0f
0"!
1%!
0l
1W
1T
1P
1S
0T
15
12
0S
05
#375000
1!
1,
1G
1J
1`
1a
1g
0&!
0h
1k
0W
0P
02
#380000
0!
0,
1*
1+
0G
0J
1H
1I
1]
1^
0`
0a
1l
1&!
0g
0k
0l
1W
1T
1P
1S
0T
15
12
0S
05
#385000
1!
1,
1G
1J
1`
1a
1i
0&!
0j
1k
0W
0P
02
#390000
0!
0,
0*
0G
0J
0H
0^
0`
0a
1l
1&!
1f
0i
0k
1"!
0%!
1W
1T
1P
1S
15
12
#395000
1!
1,
1G
1J
1`
1a
1b
0l
0&!
0W
0T
0P
0S
05
02
#400000
0!
0,
1*
0+
0)
0-
1(
0G
0J
1H
0I
0F
1E
0K
0\
1m
0_
0]
1^
0`
0a
0b
1c
0o
#405000
1!
1,
1G
1J
1`
1a
1d
1e
0n
1p
0f
#410000
0!
0,
0*
0G
0J
0H
0^
0`
0a
0d
1k
0p
0"!
1%!
#415000
1!
1,
1G
1J
1`
1a
1g
1h
0q
1s
0k
#420000
0!
0,
1*
1+
0G
0J
1H
1I
1]
1^
0`
0a
0g
1k
0s
#425000
1!
1,
1G
1J
1`
1a
1i
1j
0r
1s
0k
#430000
0!
0,
0*
0G
0J
0H
0^
0`
0a
0i
1p
0s
1"!
0%!
#435000
1!
1,
1G
1J
1`
1a
1b
#440000
0!
0,
1*
0+
1)
1-
0G
0J
1H
0I
1F
1K
1\
1_
0]
1^
0`
0a
0b
0c
1t
1&!
1W
1U
1P
1R
14
12
#445000
1!
1,
1G
1J
1`
1a
1d
0t
0&!
0e
1f
0W
0U
0P
0R
04
02
#450000
0!
0,
0*
0G
0J
0H
0^
0`
0a
1l
1t
1&!
0d
0f
0p
1s
0"!
1%!
0l
1W
1U
1T
1P
1R
1S
0T
15
14
12
0S
05
#455000
1!
1,
1G
1J
1`
1a
1g
0t
0&!
0h
1k
0W
0U
0P
0R
04
02
#460000
0!
0,
1*
1+
0G
0J
1H
1I
1]
1^
0`
0a
1l
1t
1&!
0g
0k
0l
1W
1U
1T
1P
1R
1S
0T
15
14
12
0S
05
#465000
1!
1,
1G
1J
1`
1a
1i
0t
0&!
0j
1k
0W
0U
0P
0R
04
02
#470000
0!
0,
0*
0G
0J
0H
0^
0`
0a
1l
1t
1&!
1f
0i
0k
1p
0s
1"!
0%!
1W
1U
1T
1P
1R
1S
15
14
12
#475000
1!
1,
1G
1J
1`
1a
1b
0l
0t
0&!
0W
0U
0T
0P
0R
0S
05
04
02
#480000
0!
0,
1*
0+
0)
0-
0(
1'
0G
0J
1H
0I
0F
0E
1D
0K
0\
1u
0m
0_
0]
1^
0`
0a
0b
1c
1o
0w
#485000
1!
1,
1G
1J
1`
1a
1d
1e
1n
0v
1x
0p
0f
#490000
0!
0,
0*
0G
0J
0H
0^
0`
0a
0d
1k
1s
0x
0"!
1%!
#495000
1!
1,
1G
1J
1`
1a
1g
1h
1q
0y
1{
0s
0k
#500000
0!
0,
1*
1+
0G
0J
1H
1I
1]
1^
0`
0a
0g
1k
1s
0{
#505000
1!
1,
1G
1J
1`
1a
1i
1j
1r
0z
1{
0s
0k
#510000
0!
0,
0*
0G
0J
0H
0^
0`
0a
0i
1x
0{
1"!
0%!
#515000
1!
1,
1G
1J
1`
1a
1b
#520000
0!
0,
1*
0+
1)
1-
0G
0J
1H
0I
1F
1K
1\
1_
0]
1^
0`
0a
0b
0c
1|
1&!
1W
1V
1P
1Q
13
12
#525000
1!
1,
1G
1J
1`
1a
1d
0|
0&!
0e
1f
0W
0V
0P
0Q
03
02
#530000
0!
0,
0*
0G
0J
0H
0^
0`
0a
1l
1|
1&!
0d
0f
0x
1{
0"!
1%!
0l
1W
1V
1T
1P
1Q
1S
0T
15
13
12
0S
05
#535000
1!
1,
1G
1J
1`
1a
1g
0|
0&!
0h
1k
0W
0V
0P
0Q
03
02
#540000
0!
0,
1*
1+
0G
0J
1H
1I
1]
1^
0`
0a
1l
1|
1&!
0g
0k
0l
1W
1V
1T
1P
1Q
1S
0T
15
13
12
0S
05
#545000
1!
1,
1G
1J
1`
1a
1i
0|
0&!
0j
1k
0W
0V
0P
0Q
03
02
#550000
0!
0,
0*
0G
0J
0H
0^
0`
0a
1l
1|
1&!
1f
0i
0k
1x
0{
1"!
0%!
1W
1V
1T
1P
1Q
1S
15
13
12
#555000
1!
1,
1G
1J
1`
1a
1b
0l
0|
0&!
0W
0V
0T
0P
0Q
0S
05
03
02
#560000
0!
0,
1*
0+
0)
0-
1(
0G
0J
1H
0I
0F
1E
0K
0\
1m
0_
0]
1^
0`
0a
0b
1c
0o
#565000
1!
1,
1G
1J
1`
1a
1d
1e
0n
1p
0f
#570000
0!
0,
0*
0G
0J
0H
0^
0`
0a
0d
1k
0p
0x
1{
0"!
1%!
#575000
1!
1,
1G
1J
1`
1a
1g
1h
0q
1s
0k
#580000
0!
0,
1*
1+
0G
0J
1H
1I
1]
1^
0`
0a
0g
1k
0s
#585000
1!
1,
1G
1J
1`
1a
1i
1j
0r
1s
0k
#590000
0!
0,
0*
0G
0J
0H
0^
0`
0a
0i
1p
0s
1x
0{
1"!
0%!
#595000
1!
1,
1G
1J
1`
1a
1b
#600000
0!
0,
1*
0+
1)
1-
0G
0J
1H
0I
1F
1K
1\
1_
0]
1^
0`
0a
0b
0c
1t
1|
1&!
1W
1V
1U
1P
1Q
1R
14
13
12
#605000
1!
1,
1G
1J
1`
1a
1d
0t
0|
0&!
0e
1f
0W
0V
0U
0P
0Q
0R
04
03
02
#610000
0!
0,
0*
0G
0J
0H
0^
0`
0a
1l
1t
1|
1&!
0d
0f
0p
1s
0x
1{
0"!
1%!
0l
1W
1V
1U
1T
1P
1Q
1R
1S
0T
15
14
13
12
0S
05
#615000
1!
1,
1G
1J
1`
1a
1g
0t
0|
0&!
0h
1k
0W
0V
0U
0P
0Q
0R
04
03
02
#620000
0!
0,
1*
1+
0G
0J
1H
1I
1]
1^
0`
0a
1l
1t
1|
1&!
0g
0k
0l
1W
1V
1U
1T
1P
1Q
1R
1S
0T
15
14
13
12
0S
05
#625000
1!
1,
1G
1J
1`
1a
1i
0t
0|
0&!
0j
1k
0W
0V
0U
0P
0Q
0R
04
03
02
#630000
0!
0,
0*
0G
0J
0H
0^
0`
0a
1l
1t
1|
1&!
1f
0i
0k
1p
0s
1x
0{
1"!
0%!
1W
1V
1U
1T
1P
1Q
1R
1S
15
14
13
12
#635000
1!
1,
1G
1J
1`
1a
1b
0l
0t
0|
0&!
0W
0V
0U
0T
0P
0Q
0R
0S
05
04
03
02
#640000
0!
0,
1*
0+
0)
0-
0(
0'
0&
1%
0G
0J
1H
0I
0F
0E
0D
0C
1B
0K
0\
1'!
0}
0u
0m
0_
0]
1^
0`
0a
0b
1c
1o
1w
1!!
0)!
#645000
1!
1,
1G
1J
1`
1a
1d
1e
1n
1v
1~
0(!
1*!
0"!
0x
0p
0f
#650000
0!
0,
0*
0G
0J
0H
0^
0`
0a
0d
1k
1s
1{
1%!
0*!
#655000
1!
1,
1G
1J
1`
1a
1g
1h
1q
1y
1#!
0+!
1-!
0%!
0{
0s
0k
#660000
0!
0,
1*
1+
0G
0J
1H
1I
1]
1^
0`
0a
0g
1k
1s
1{
1%!
0-!
#665000
1!
1,
1G
1J
1`
1a
1i
1j
1r
1z
1$!
0,!
1-!
0%!
0{
0s
0k
#670000
0!
0,
0*
0G
0J
0H
0^
0`
0a
0i
1*!
0-!
#675000
1!
1,
1G
1J
1`
1a
1b
#680000
0!
0,
1*
0+
1)
1-
0G
0J
1H
0I
1F
1K
1\
1_
0]
1^
0`
0a
0b
0c
1.!
1X
1O
11
#685000
1!
1,
1G
1J
1`
1a
1d
0.!
0e
1f
0X
0O
01
#690000
0!
0,
0*
0G
0J
0H
0^
0`
0a
1l
1.!
0d
0f
0*!
1-!
0l
1X
1T
1O
1S
0T
15
11
0S
05
#695000
1!
1,
1G
1J
1`
1a
1g
0.!
0h
1k
0X
0O
01
#700000
0!
0,
1*
1+
0G
0J
1H
1I
1]
1^
0`
0a
1l
1.!
0g
0k
0l
1X
1T
1O
1S
0T
15
11
0S
05
#705000
1!
1,
1G
1J
1`
1a
1i
0.!
0j
1k
0X
0O
01
#710000
0!
0,
0*
0G
0J
0H
0^
0`
0a
1l
1.!
1f
0i
0k
1*!
0-!
1X
1T
1O
1S
15
11
#715000
1!
1,
1G
1J
1`
1a
1b
0l
0.!
0X
0T
0O
0S
05
01
#720000
0!
0,
1*
0+
0)
0-
1(
0G
0J
1H
0I
0F
1E
0K
0\
1m
0_
0]
1^
0`
0a
0b
1c
0o
#725000
1!
1,
1G
1J
1`
1a
1d
1e
0n
1p
0f
#730000
0!
0,
0*
0G
0J
0H
0^
0`
0a
0d
1k
0p
0*!
1-!
#735000
1!
1,
1G
1J
1`
1a
1g
1h
0q
1s
0k
#740000
0!
0,
1*
1+
0G
0J
1H
1I
1]
1^
0`
0a
0g
1k
0s
#745000
1!
1,
1G
1J
1`
1a
1i
1j
0r
1s
0k
#750000
0!
0,
0*
0G
0J
0H
0^
0`
0a
0i
1p
0s
1*!
0-!
#755000
1!
1,
1G
1J
1`
1a
1b
#760000
0!
0,
1*
0+
1)
1-
0G
0J
1H
0I
1F
1K
1\
1_
0]
1^
0`
0a
0b
0c
1t
1.!
1X
1U
1O
1R
14
11
#765000
1!
1,
1G
1J
1`
1a
1d
0t
0.!
0e
1f
0X
0U
0O
0R
04
01
#770000
0!
0,
0*
0G
0J
0H
0^
0`
0a
1l
1t
1.!
0d
0f
0p
1s
0*!
1-!
0l
1X
1U
1T
1O
1R
1S
0T
15
14
11
0S
05
#775000
1!
1,
1G
1J
1`
1a
1g
0t
0.!
0h
1k
0X
0U
0O
0R
04
01
#780000
0!
0,
1*
1+
0G
0J
1H
1I
1]
1^
0`
0a
1l
1t
1.!
0g
0k
0l
1X
1U
1T
1O
1R
1S
0T
15
14
11
0S
05
#785000
1!
1,
1G
1J
1`
1a
1i
0t
0.!
0j
1k
0X
0U
0O
0R
04
01
#790000
0!
0,
0*
0G
0J
0H
0^
0`
0a
1l
1t
1.!
1f
0i
0k
1p
0s
1*!
0-!
1X
1U
1T
1O
1R
1S
15
14
11
#795000
1!
1,
1G
1J
1`
1a
1b
0l
0t
0.!
0X
0U
0T
0O
0R
0S
05
04
01
#800000
0!
0,
1*
0+
0)
0-
0(
1'
0G
0J
1H
0I
0F
0E
1D
0K
0\
1u
0m
0_
0]
1^
0`
0a
0b
1c
1o
0w
#805000
1!
1,
1G
1J
1`
1a
1d
1e
1n
0v
1x
0p
0f
#810000
0!
0,
0*
0G
0J
0H
0^
0`
0a
0d
1k
1s
0x
0*!
1-!
#815000
1!
1,
1G
1J
1`
1a
1g
1h
1q
0y
1{
0s
0k
#820000
0!
0,
1*
1+
0G
0J
1H
1I
1]
1^
0`
0a
0g
1k
1s
0{
#825000
1!
1,
1G
1J
1`
1a
1i
1j
1r
0z
1{
0s
0k
#830000
0!
0,
0*
0G
0J
0H
0^
0`
0a
0i
1x
0{
1*!
0-!
#835000
1!
1,
1G
1J
1`
1a
1b
#840000
0!
0,
1*
0+
1)
1-
0G
0J
1H
0I
1F
1K
1\
1_
0]
1^
0`
0a
0b
0c
1|
1.!
1X
1V
1O
1Q
13
11
#845000
1!
1,
1G
1J
1`
1a
1d
0|
0.!
0e
1f
0X
0V
0O
0Q
03
01
#850000
0!
0,
0*
0G
0J
0H
0^
0`
0a
1l
1|
1.!
0d
0f
0x
1{
0*!
1-!
0l
1X
1V
1T
1O
1Q
1S
0T
15
13
11
0S
05
#855000
1!
1,
1G
1J
1`
1a
1g
0|
0.!
0h
1k
0X
0V
0O
0Q
03
01
#860000
0!
0,
1*
1+
0G
0J
1H
1I
1]
1^
0`
0a
1l
1|
1.!
0g
0k
0l
1X
1V
1T
1O
1Q
1S
0T
15
13
11
0S
05
#865000
1!
1,
1G
1J
1`
1a
1i
0|
0.!
0j
1k
0X
0V
0O
0Q
03
01
#870000
0!
0,
0*
0G
0J
0H
0^
0`
0a
1l
1|
1.!
1f
0i
0k
1x
0{
1*!
0-!
1X
1V
1T
1O
1Q
1S
15
13
11
#875000
1!
1,
1G
1J
1`
1a
1b
0l
0|
0.!
0X
0V
0T
0O
0Q
0S
05
03
01
#880000
0!
0,
1*
0+
0)
0-
1(
0G
0J
1H
0I
0F
1E
0K
0\
1m
0_
0]
1^
0`
0a
0b
1c
0o
#885000
1!
1,
1G
1J
1`
1a
1d
1e
0n
1p
0f
#890000
0!
0,
0*
0G
0J
0H
0^
0`
0a
0d
1k
0p
0x
1{
0*!
1-!
#895000
1!
1,
1G
1J
1`
1a
1g
1h
0q
1s
0k
#900000
0!
0,
1*
1+
0G
0J
1H
1I
1]
1^
0`
0a
0g
1k
0s
#905000
1!
1,
1G
1J
1`
1a
1i
1j
0r
1s
0k
#910000
0!
0,
0*
0G
0J
0H
0^
0`
0a
0i
1p
0s
1x
0{
1*!
0-!
#915000
1!
1,
1G
1J
1`
1a
1b
#920000
0!
0,
1*
0+
1)
1-
0G
0J
1H
0I
1F
1K
1\
1_
0]
1^
0`
0a
0b
0c
1t
1|
1.!
1X
1V
1U
1O
1Q
1R
14
13
11
#925000
1!
1,
1G
1J
1`
1a
1d
0t
0|
0.!
0e
1f
0X
0V
0U
0O
0Q
0R
04
03
01
#930000
0!
0,
0*
0G
0J
0H
0^
0`
0a
1l
1t
1|
1.!
0d
0f
0p
1s
0x
1{
0*!
1-!
0l
1X
1V
1U
1T
1O
1Q
1R
1S
0T
15
14
13
11
0S
05
#935000
1!
1,
1G
1J
1`
1a
1g
0t
0|
0.!
0h
1k
0X
0V
0U
0O
0Q
0R
04
03
01
#940000
0!
0,
1*
1+
0G
0J
1H
1I
1]
1^
0`
0a
1l
1t
1|
1.!
0g
0k
0l
1X
1V
1U
1T
1O
1Q
1R
1S
0T
15
14
13
11
0S
05
#945000
1!
1,
1G
1J
1`
1a
1i
0t
0|
0.!
0j
1k
0X
0V
0U
0O
0Q
0R
04
03
01
#950000
0!
0,
0*
0G
0J
0H
0^
0`
0a
1l
1t
1|
1.!
1f
0i
0k
1p
0s
1x
0{
1*!
0-!
1X
1V
1U
1T
1O
1Q
1R
1S
15
14
13
11
