3Bimestre/ultimo trabalho do bimestre/simulation/qsim/memoriaffd.msim.vcd
$comment
	File created using the following command:
		vcd file memoriaffd.msim.vcd -direction
$end
$date
	Tue Nov 14 13:45:58 2023
$end
$version
	ModelSim Version 10.5b
$end
$timescale
	1ps
$end

$scope module final_vhd_vec_tst $end
$var wire 1 ! Clock $end
$var wire 1 " D [7] $end
$var wire 1 # D [6] $end
$var wire 1 $ D [5] $end
$var wire 1 % D [4] $end
$var wire 1 & D [3] $end
$var wire 1 ' D [2] $end
$var wire 1 ( D [1] $end
$var wire 1 ) D [0] $end
$var wire 1 * enderecoX $end
$var wire 1 + enderecoY $end
$var wire 1 , escrever $end
$var wire 1 - ler $end
$var wire 1 . Saida [7] $end
$var wire 1 / Saida [6] $end
$var wire 1 0 Saida [5] $end
$var wire 1 1 Saida [4] $end
$var wire 1 2 Saida [3] $end
$var wire 1 3 Saida [2] $end
$var wire 1 4 Saida [1] $end
$var wire 1 5 Saida [0] $end

$scope module i1 $end
$var wire 1 6 gnd $end
$var wire 1 7 vcc $end
$var wire 1 8 unknown $end
$var wire 1 9 devoe $end
$var wire 1 : devclrn $end
$var wire 1 ; devpor $end
$var wire 1 < ww_devoe $end
$var wire 1 = ww_devclrn $end
$var wire 1 > ww_devpor $end
$var wire 1 ? ww_D [7] $end
$var wire 1 @ ww_D [6] $end
$var wire 1 A ww_D [5] $end
$var wire 1 B ww_D [4] $end
$var wire 1 C ww_D [3] $end
$var wire 1 D ww_D [2] $end
$var wire 1 E ww_D [1] $end
$var wire 1 F ww_D [0] $end
$var wire 1 G ww_Clock $end
$var wire 1 H ww_enderecoX $end
$var wire 1 I ww_enderecoY $end
$var wire 1 J ww_escrever $end
$var wire 1 K ww_ler $end
$var wire 1 L ww_Saida [7] $end
$var wire 1 M ww_Saida [6] $end
$var wire 1 N ww_Saida [5] $end
$var wire 1 O ww_Saida [4] $end
$var wire 1 P ww_Saida [3] $end
$var wire 1 Q ww_Saida [2] $end
$var wire 1 R ww_Saida [1] $end
$var wire 1 S ww_Saida [0] $end
$var wire 1 T \flipflop01|cond~clkctrl_INCLK_bus\ [3] $end
$var wire 1 U \flipflop01|cond~clkctrl_INCLK_bus\ [2] $end
$var wire 1 V \flipflop01|cond~clkctrl_INCLK_bus\ [1] $end
$var wire 1 W \flipflop01|cond~clkctrl_INCLK_bus\ [0] $end
$var wire 1 X \flipflop00|cond~clkctrl_INCLK_bus\ [3] $end
$var wire 1 Y \flipflop00|cond~clkctrl_INCLK_bus\ [2] $end
$var wire 1 Z \flipflop00|cond~clkctrl_INCLK_bus\ [1] $end
$var wire 1 [ \flipflop00|cond~clkctrl_INCLK_bus\ [0] $end
$var wire 1 \ \flipflop11|cond~clkctrl_INCLK_bus\ [3] $end
$var wire 1 ] \flipflop11|cond~clkctrl_INCLK_bus\ [2] $end
$var wire 1 ^ \flipflop11|cond~clkctrl_INCLK_bus\ [1] $end
$var wire 1 _ \flipflop11|cond~clkctrl_INCLK_bus\ [0] $end
$var wire 1 ` \flipflop10|cond~clkctrl_INCLK_bus\ [3] $end
$var wire 1 a \flipflop10|cond~clkctrl_INCLK_bus\ [2] $end
$var wire 1 b \flipflop10|cond~clkctrl_INCLK_bus\ [1] $end
$var wire 1 c \flipflop10|cond~clkctrl_INCLK_bus\ [0] $end
$var wire 1 d \Saida[0]~output_o\ $end
$var wire 1 e \Saida[1]~output_o\ $end
$var wire 1 f \Saida[2]~output_o\ $end
$var wire 1 g \Saida[3]~output_o\ $end
$var wire 1 h \Saida[4]~output_o\ $end
$var wire 1 i \Saida[5]~output_o\ $end
$var wire 1 j \Saida[6]~output_o\ $end
$var wire 1 k \Saida[7]~output_o\ $end
$var wire 1 l \enderecoY~input_o\ $end
$var wire 1 m \D[0]~input_o\ $end
$var wire 1 n \escrever~input_o\ $end
$var wire 1 o \enderecoX~input_o\ $end
$var wire 1 p \Clock~input_o\ $end
$var wire 1 q \flipflop10|cond~combout\ $end
$var wire 1 r \flipflop10|cond~clkctrl_outclk\ $end
$var wire 1 s \flipflop10|flipflop_0|sq~0_combout\ $end
$var wire 1 t \flipflop01|cond~combout\ $end
$var wire 1 u \flipflop01|cond~clkctrl_outclk\ $end
$var wire 1 v \flipflop01|flipflop_0|sq~0_combout\ $end
$var wire 1 w \Saida~0_combout\ $end
$var wire 1 x \flipflop11|cond~combout\ $end
$var wire 1 y \flipflop11|cond~clkctrl_outclk\ $end
$var wire 1 z \flipflop11|flipflop_0|sq~0_combout\ $end
$var wire 1 { \flipflop00|cond~combout\ $end
$var wire 1 | \flipflop00|cond~clkctrl_outclk\ $end
$var wire 1 } \flipflop00|flipflop_0|sq~0_combout\ $end
$var wire 1 ~ \Saida~1_combout\ $end
$var wire 1 !! \ler~input_o\ $end
$var wire 1 "! \Saida~2_combout\ $end
$var wire 1 #! \D[1]~input_o\ $end
$var wire 1 $! \flipflop10|flipflop_1|sq~0_combout\ $end
$var wire 1 %! \flipflop01|flipflop_1|sq~0_combout\ $end
$var wire 1 &! \Saida~3_combout\ $end
$var wire 1 '! \flipflop00|flipflop_1|sq~0_combout\ $end
$var wire 1 (! \flipflop11|flipflop_1|sq~0_combout\ $end
$var wire 1 )! \Saida~4_combout\ $end
$var wire 1 *! \Saida~5_combout\ $end
$var wire 1 +! \D[2]~input_o\ $end
$var wire 1 ,! \flipflop11|flipflop_2|sq~0_combout\ $end
$var wire 1 -! \flipflop00|flipflop_2|sq~0_combout\ $end
$var wire 1 .! \Saida~7_combout\ $end
$var wire 1 /! \flipflop10|flipflop_2|sq~0_combout\ $end
$var wire 1 0! \flipflop01|flipflop_2|sq~0_combout\ $end
$var wire 1 1! \Saida~6_combout\ $end
$var wire 1 2! \Saida~8_combout\ $end
$var wire 1 3! \D[3]~input_o\ $end
$var wire 1 4! \flipflop00|flipflop_3|sq~0_combout\ $end
$var wire 1 5! \flipflop11|flipflop_3|sq~0_combout\ $end
$var wire 1 6! \Saida~10_combout\ $end
$var wire 1 7! \flipflop01|flipflop_3|sq~0_combout\ $end
$var wire 1 8! \flipflop10|flipflop_3|sq~0_combout\ $end
$var wire 1 9! \Saida~9_combout\ $end
$var wire 1 :! \Saida~11_combout\ $end
$var wire 1 ;! \D[4]~input_o\ $end
$var wire 1 <! \flipflop10|flipflop_4|sq~0_combout\ $end
$var wire 1 =! \flipflop01|flipflop_4|sq~0_combout\ $end
$var wire 1 >! \Saida~12_combout\ $end
$var wire 1 ?! \flipflop11|flipflop_4|sq~0_combout\ $end
$var wire 1 @! \flipflop00|flipflop_4|sq~0_combout\ $end
$var wire 1 A! \Saida~13_combout\ $end
$var wire 1 B! \Saida~14_combout\ $end
$var wire 1 C! \D[5]~input_o\ $end
$var wire 1 D! \flipflop00|flipflop_5|sq~0_combout\ $end
$var wire 1 E! \flipflop11|flipflop_5|sq~0_combout\ $end
$var wire 1 F! \Saida~16_combout\ $end
$var wire 1 G! \flipflop10|flipflop_5|sq~0_combout\ $end
$var wire 1 H! \flipflop01|flipflop_5|sq~0_combout\ $end
$var wire 1 I! \Saida~15_combout\ $end
$var wire 1 J! \Saida~17_combout\ $end
$var wire 1 K! \D[6]~input_o\ $end
$var wire 1 L! \flipflop00|flipflop_6|sq~0_combout\ $end
$var wire 1 M! \flipflop11|flipflop_6|sq~0_combout\ $end
$var wire 1 N! \Saida~19_combout\ $end
$var wire 1 O! \flipflop10|flipflop_6|sq~0_combout\ $end
$var wire 1 P! \flipflop01|flipflop_6|sq~0_combout\ $end
$var wire 1 Q! \Saida~18_combout\ $end
$var wire 1 R! \Saida~20_combout\ $end
$var wire 1 S! \D[7]~input_o\ $end
$var wire 1 T! \flipflop01|flipflop_7|sq~0_combout\ $end
$var wire 1 U! \flipflop10|flipflop_7|sq~0_combout\ $end
$var wire 1 V! \Saida~21_combout\ $end
$var wire 1 W! \flipflop11|flipflop_7|sq~0_combout\ $end
$var wire 1 X! \flipflop00|flipflop_7|sq~0_combout\ $end
$var wire 1 Y! \Saida~22_combout\ $end
$var wire 1 Z! \Saida~23_combout\ $end
$upscope $end
$upscope $end
$enddefinitions $end
#0
$dumpvars
0!
0*
0+
0,
0-
06
17
x8
19
1:
1;
1<
1=
1>
0G
0H
0I
0J
0K
0d
0e
0f
0g
0h
0i
0j
0k
0l
0m
0n
0o
0p
0q
0r
xs
0t
0u
xv
0w
0x
0y
xz
0{
0|
x}
x~
0!!
0"!
0#!
x$!
x%!
0&!
x'!
x(!
x)!
0*!
0+!
x,!
x-!
x.!
x/!
x0!
01!
02!
03!
x4!
x5!
x6!
x7!
x8!
09!
0:!
0;!
x<!
x=!
0>!
x?!
x@!
xA!
0B!
0C!
xD!
xE!
xF!
xG!
xH!
0I!
0J!
0K!
xL!
xM!
xN!
xO!
xP!
0Q!
0R!
0S!
xT!
xU!
0V!
xW!
xX!
xY!
0Z!
0"
0#
0$
0%
0&
0'
0(
0)
0.
0/
00
01
02
03
04
05
0?
0@
0A
0B
0C
0D
0E
0F
0L
0M
0N
0O
0P
0Q
0R
0S
1`
1a
1b
0c
1T
1U
1V
0W
1\
1]
1^
0_
1X
1Y
1Z
0[
$end
#673
1"
1#
1$
1%
1&
1'
1(
1)
1F
1E
1D
1C
1B
1A
1@
1?
1S!
1K!
1C!
1;!
13!
1+!
1#!
1m
#4360
1,
1J
1n
#5000
1!
1G
1p
1{
1[
1|
0}
0'!
0-!
04!
0@!
0D!
0L!
0X!
1Y!
1N!
1F!
1A!
16!
1.!
1)!
1~
#9899
0,
0J
0n
0{
0[
0|
#10000
0!
0G
0p
#13547
0"
0#
0$
0%
0&
0'
0(
0)
0F
0E
0D
0C
0B
0A
0@
0?
0S!
0K!
0C!
0;!
03!
0+!
0#!
0m
#14388
1-
1K
1!!
1"!
1*!
12!
1:!
1B!
1J!
1R!
1Z!
1k
1j
1i
1h
1g
1f
1e
1d
1L
1M
1N
1O
1P
1Q
1R
1S
15
14
13
12
11
10
1/
1.
#15000
1!
1G
1p
#20000
0!
0G
0p
#22889
1&
1'
1(
1)
1F
1E
1D
1C
13!
1+!
1#!
1m
#22926
0-
0K
0!!
0"!
0*!
02!
0:!
0B!
0J!
0R!
0Z!
0k
0j
0i
0h
0g
0f
0e
0d
0L
0M
0N
0O
0P
0Q
0R
0S
05
04
03
02
01
00
0/
0.
#23736
1+
1I
1l
xw
0~
x&!
0)!
0.!
x1!
06!
x9!
x>!
0A!
0F!
xI!
0N!
xQ!
xV!
0Y!
#24251
1,
1J
1n
#25000
1!
1G
1p
1t
1W
1u
0v
0%!
00!
07!
1=!
1H!
1P!
1T!
0V!
0Q!
0I!
0>!
19!
11!
1&!
1w
#30000
0!
0G
0p
0t
0W
0u
#32936
0,
0J
0n
#33745
0&
0'
0(
0)
0F
0E
0D
0C
03!
0+!
0#!
0m
#33856
1-
1K
1!!
1"!
1*!
12!
1:!
1g
1f
1e
1d
1P
1Q
1R
1S
15
14
13
12
#35000
1!
1G
1p
#40000
0!
0G
0p
#42614
0+
0I
0l
0w
1~
0&!
1)!
1.!
01!
16!
09!
1A!
1F!
1N!
1Y!
1Z!
1R!
1J!
1B!
1h
1i
1j
1k
1O
1N
1M
1L
11
10
1/
1.
#45000
1!
1G
1p
#50000
0!
0G
0p
#50526
0-
0K
0!!
0"!
0*!
02!
0:!
0B!
0J!
0R!
0Z!
0k
0j
0i
0h
0g
0f
0e
0d
0L
0M
0N
0O
0P
0Q
0R
0S
05
04
03
02
01
00
0/
0.
#51446
1*
1H
1o
xw
0~
x&!
0)!
0.!
x1!
06!
x9!
x>!
0A!
0F!
xI!
0N!
xQ!
xV!
0Y!
#52145
1,
1J
1n
#52513
1"
1#
1$
1%
1B
1A
1@
1?
1S!
1K!
1C!
1;!
#55000
1!
1G
1p
1q
1c
1r
1s
1$!
1/!
18!
0<!
0G!
0O!
0U!
1V!
1Q!
1I!
1>!
09!
01!
0&!
0w
#60000
0!
0G
0p
0q
0c
0r
#61272
0"
0#
0$
0%
0B
0A
0@
0?
0S!
0K!
0C!
0;!
#62376
0,
0J
0n
#64032
1-
1K
1!!
1B!
1J!
1R!
1Z!
1k
1j
1i
1h
1L
1M
1N
1O
11
10
1/
1.
#65000
1!
1G
1p
#70000
0!
0G
0p
#71944
0*
0H
0o
1~
1)!
1.!
16!
0>!
1A!
1F!
0I!
1N!
0Q!
0V!
1Y!
1:!
12!
1*!
1"!
1d
1e
1f
1g
1S
1R
1Q
1P
15
14
13
12
#72864
0-
0K
0!!
0"!
0*!
02!
0:!
0B!
0J!
0R!
0Z!
0k
0j
0i
0h
0g
0f
0e
0d
0L
0M
0N
0O
0P
0Q
0R
0S
05
04
03
02
01
00
0/
0.
#73048
1"
1#
1$
1%
1&
1'
1(
1)
1F
1E
1D
1C
1B
1A
1@
1?
1S!
1K!
1C!
1;!
13!
1+!
1#!
1m
#74262
1*
1+
1H
1I
1l
1o
x~
x)!
x.!
x6!
xA!
xF!
xN!
xY!
#74593
1,
1J
1n
#75000
1!
1G
1p
1x
1_
1y
0z
0(!
0,!
05!
0?!
0E!
0M!
0W!
1Y!
1N!
1F!
1A!
16!
1.!
1)!
1~
#80000
0!
0G
0p
0x
0_
0y
#80665
0,
0J
0n
#81401
0*
0+
0H
0I
0l
0o
#81843
0"
0#
0$
0%
0&
0'
0(
0)
0F
0E
0D
0C
0B
0A
0@
0?
0S!
0K!
0C!
0;!
03!
0+!
0#!
0m
#82873
1*
1+
1H
1I
1l
1o
#84235
1-
1K
1!!
1"!
1*!
12!
1:!
1B!
1J!
1R!
1Z!
1k
1j
1i
1h
1g
1f
1e
1d
1L
1M
1N
1O
1P
1Q
1R
1S
15
14
13
12
11
10
1/
1.
#85000
1!
1G
1p
#90000
0!
0G
0p
#90454
0*
0+
0H
0I
0l
0o
#95000
1!
1G
1p
#97078
0-
0K
0!!
0"!
0*!
02!
0:!
0B!
0J!
0R!
0Z!
0k
0j
0i
0h
0g
0f
0e
0d
0L
0M
0N
0O
0P
0Q
0R
0S
05
04
03
02
01
00
0/
0.
#100000
0!
0G
0p
#105000
1!
1G
1p
#110000
0!
0G
0p
#115000
1!
1G
1p
#120000
0!
0G
0p
#125000
1!
1G
1p
#130000
0!
0G
0p
#135000
1!
1G
1p
#140000
0!
0G
0p
#145000
1!
1G
1p
#150000
0!
0G
0p
#155000
1!
1G
1p
#160000
0!
0G
0p
#165000
1!
1G
1p
#170000
0!
0G
0p
#175000
1!
1G
1p
#180000
0!
0G
0p
#185000
1!
1G
1p
#190000
0!
0G
0p
#195000
1!
1G
1p
#200000
0!
0G
0p
#205000
1!
1G
1p
#210000
0!
0G
0p
#215000
1!
1G
1p
#220000
0!
0G
0p
#225000
1!
1G
1p
#230000
0!
0G
0p
#235000
1!
1G
1p
#240000
0!
0G
0p
#245000
1!
1G
1p
#250000
0!
0G
0p
#255000
1!
1G
1p
#260000
0!
0G
0p
#265000
1!
1G
1p
#270000
0!
0G
0p
#275000
1!
1G
1p
#280000
0!
0G
0p
#285000
1!
1G
1p
#290000
0!
0G
0p
#295000
1!
1G
1p
#300000
0!
0G
0p
#305000
1!
1G
1p
#310000
0!
0G
0p
#315000
1!
1G
1p
#320000
0!
0G
0p
#325000
1!
1G
1p
#330000
0!
0G
0p
#335000
1!
1G
1p
#340000
0!
0G
0p
#345000
1!
1G
1p
#350000
0!
0G
0p
#355000
1!
1G
1p
#360000
0!
0G
0p
#365000
1!
1G
1p
#370000
0!
0G
0p
#375000
1!
1G
1p
#380000
0!
0G
0p
#385000
1!
1G
1p
#390000
0!
0G
0p
#395000
1!
1G
1p
#400000
0!
0G
0p
#405000
1!
1G
1p
#410000
0!
0G
0p
#415000
1!
1G
1p
#420000
0!
0G
0p
#425000
1!
1G
1p
#430000
0!
0G
0p
#435000
1!
1G
1p
#440000
0!
0G
0p
#445000
1!
1G
1p
#450000
0!
0G
0p
#455000
1!
1G
1p
#460000
0!
0G
0p
#465000
1!
1G
1p
#470000
0!
0G
0p
#475000
1!
1G
1p
#480000
0!
0G
0p
#485000
1!
1G
1p
#490000
0!
0G
0p
#495000
1!
1G
1p
#500000
0!
0G
0p
#505000
1!
1G
1p
#510000
0!
0G
0p
#515000
1!
1G
1p
#520000
0!
0G
0p
#525000
1!
1G
1p
#530000
0!
0G
0p
#535000
1!
1G
1p
#540000
0!
0G
0p
#545000
1!
1G
1p
#550000
0!
0G
0p
#555000
1!
1G
1p
#560000
0!
0G
0p
#565000
1!
1G
1p
#570000
0!
0G
0p
#575000
1!
1G
1p
#580000
0!
0G
0p
#585000
1!
1G
1p
#590000
0!
0G
0p
#595000
1!
1G
1p
#600000
0!
0G
0p
#605000
1!
1G
1p
#610000
0!
0G
0p
#615000
1!
1G
1p
#620000
0!
0G
0p
#625000
1!
1G
1p
#630000
0!
0G
0p
#635000
1!
1G
1p
#640000
0!
0G
0p
#645000
1!
1G
1p
#650000
0!
0G
0p
#655000
1!
1G
1p
#660000
0!
0G
0p
#665000
1!
1G
1p
#670000
0!
0G
0p
#675000
1!
1G
1p
#680000
0!
0G
0p
#685000
1!
1G
1p
#690000
0!
0G
0p
#695000
1!
1G
1p
#700000
0!
0G
0p
#705000
1!
1G
1p
#710000
0!
0G
0p
#715000
1!
1G
1p
#720000
0!
0G
0p
#725000
1!
1G
1p
#730000
0!
0G
0p
#735000
1!
1G
1p
#740000
0!
0G
0p
#745000
1!
1G
1p
#750000
0!
0G
0p
#755000
1!
1G
1p
#760000
0!
0G
0p
#765000
1!
1G
1p
#770000
0!
0G
0p
#775000
1!
1G
1p
#780000
0!
0G
0p
#785000
1!
1G
1p
#790000
0!
0G
0p
#795000
1!
1G
1p
#800000
0!
0G
0p
#805000
1!
1G
1p
#810000
0!
0G
0p
#815000
1!
1G
1p
#820000
0!
0G
0p
#825000
1!
1G
1p
#830000
0!
0G
0p
#835000
1!
1G
1p
#840000
0!
0G
0p
#845000
1!
1G
1p
#850000
0!
0G
0p
#855000
1!
1G
1p
#860000
0!
0G
0p
#865000
1!
1G
1p
#870000
0!
0G
0p
#875000
1!
1G
1p
#880000
0!
0G
0p
#885000
1!
1G
1p
#890000
0!
0G
0p
#895000
1!
1G
1p
#900000
0!
0G
0p
#905000
1!
1G
1p
#910000
0!
0G
0p
#915000
1!
1G
1p
#920000
0!
0G
0p
#925000
1!
1G
1p
#930000
0!
0G
0p
#935000
1!
1G
1p
#940000
0!
0G
0p
#945000
1!
1G
1p
#950000
0!
0G
0p
#955000
1!
1G
1p
#960000
0!
0G
0p
#965000
1!
1G
1p
#970000
0!
0G
0p
#975000
1!
1G
1p
#980000
0!
0G
0p
#985000
1!
1G
1p
#990000
0!
0G
0p
#995000
1!
1G
1p
